month,segment,avg_n_binds_per_user
2019-06-01,small_retail,1.5609756097560976
2019-07-01,small_retail,1.8888888888888888
2019-08-01,small_retail,1.6935483870967742
2019-09-01,small_retail,1.7017543859649122
2019-10-01,small_retail,1.6326530612244898
2019-11-01,small_retail,1.631578947368421
2019-12-01,small_retail,1.5686274509803921
2020-01-01,small_retail,1.607843137254902
2020-02-01,small_retail,1.5319148936170213
2020-03-01,small_retail,1.7272727272727273
2020-04-01,small_retail,1.108695652173913
2020-05-01,small_retail,1.3333333333333333
2020-06-01,small_retail,1.457142857142857
2020-07-01,small_retail,1.4883720930232558
2020-08-01,small_retail,1.4324324324324325
2020-09-01,small_retail,1.5454545454545454
2020-10-01,small_retail,1.4418604651162792
2020-11-01,small_retail,1.3333333333333333
2020-12-01,small_retail,1.7027027027027026
2021-01-01,small_retail,1.5365853658536586
2021-02-01,small_retail,1.5555555555555556
2021-03-01,small_retail,1.4166666666666667
2019-06-01,wholesale,3.625615763546798
2019-07-01,wholesale,3.9285714285714284
2019-08-01,wholesale,3.8181818181818183
2019-09-01,wholesale,3.7897435897435896
2019-10-01,wholesale,4.278301886792453
2019-11-01,wholesale,4.05
2019-12-01,wholesale,3.8847926267281108
2020-01-01,wholesale,3.5
2020-02-01,wholesale,2.8292682926829267
2020-03-01,wholesale,2.8181818181818183
2020-04-01,wholesale,2.0517241379310347
2020-05-01,wholesale,2.188034188034188
2020-06-01,wholesale,2.0754716981132075
2020-07-01,wholesale,2.2393162393162394
2020-08-01,wholesale,2.305084745762712
2020-09-01,wholesale,2.03
2020-10-01,wholesale,2.0186915887850465
2020-11-01,wholesale,1.7961165048543688
2020-12-01,wholesale,2.27
2021-01-01,wholesale,2.3258426966292136
2021-02-01,wholesale,2.044943820224719
2021-03-01,wholesale,1.8873239436619718
