"	https://analytics.amplitude.com/attune/chart/new/6o3a3j6"
"	Totals"
"	/bop/invoice/ :: receipt_download_success"
"	/bop/invoice/ :: static_invoice_receipt_download_success"
"	/insured :: insured_invoice_receipt_download_success"

"	Event","	2020-01-07","	2020-01-08","	2020-01-09","	2020-01-10","	2020-01-11","	2020-01-12","	2020-01-13","	2020-01-14","	2020-01-15","	2020-01-16","	2020-01-17","	2020-01-18","	2020-01-19","	2020-01-20","	2020-01-21","	2020-01-22","	2020-01-23","	2020-01-24","	2020-01-25","	2020-01-26","	2020-01-27","	2020-01-28","	2020-01-29","	2020-01-30","	2020-01-31","	2020-02-01","	2020-02-02","	2020-02-03","	2020-02-04","	2020-02-05","	2020-02-06","	2020-02-07","	2020-02-08","	2020-02-09","	2020-02-10","	2020-02-11","	2020-02-12","	2020-02-13","	2020-02-14","	2020-02-15","	2020-02-16","	2020-02-17","	2020-02-18","	2020-02-19","	2020-02-20","	2020-02-21","	2020-02-22","	2020-02-23","	2020-02-24","	2020-02-25","	2020-02-26","	2020-02-27","	2020-02-28","	2020-02-29","	2020-03-01","	2020-03-02","	2020-03-03","	2020-03-04","	2020-03-05","	2020-03-06","	2020-03-07","	2020-03-08","	2020-03-09","	2020-03-10","	2020-03-11","	2020-03-12","	2020-03-13","	2020-03-14","	2020-03-15","	2020-03-16","	2020-03-17","	2020-03-18","	2020-03-19","	2020-03-20","	2020-03-21","	2020-03-22","	2020-03-23","	2020-03-24","	2020-03-25","	2020-03-26","	2020-03-27","	2020-03-28","	2020-03-29","	2020-03-30","	2020-03-31","	2020-04-01","	2020-04-02","	2020-04-03","	2020-04-04","	2020-04-05","	2020-04-06","	2020-04-07","	2020-04-08","	2020-04-09","	2020-04-10","	2020-04-11","	2020-04-12","	2020-04-13","	2020-04-14","	2020-04-15","	2020-04-16","	2020-04-17","	2020-04-18","	2020-04-19","	2020-04-20","	2020-04-21","	2020-04-22","	2020-04-23","	2020-04-24","	2020-04-25","	2020-04-26","	2020-04-27","	2020-04-28","	2020-04-29","	2020-04-30","	2020-05-01","	2020-05-02","	2020-05-03","	2020-05-04","	2020-05-05","	2020-05-06","	2020-05-07","	2020-05-08","	2020-05-09","	2020-05-10","	2020-05-11","	2020-05-12","	2020-05-13","	2020-05-14","	2020-05-15","	2020-05-16","	2020-05-17","	2020-05-18","	2020-05-19","	2020-05-20","	2020-05-21","	2020-05-22","	2020-05-23","	2020-05-24","	2020-05-25","	2020-05-26","	2020-05-27","	2020-05-28","	2020-05-29","	2020-05-30","	2020-05-31","	2020-06-01","	2020-06-02","	2020-06-03","	2020-06-04","	2020-06-05","	2020-06-06","	2020-06-07","	2020-06-08","	2020-06-09","	2020-06-10","	2020-06-11","	2020-06-12","	2020-06-13","	2020-06-14","	2020-06-15","	2020-06-16","	2020-06-17","	2020-06-18","	2020-06-19","	2020-06-20","	2020-06-21","	2020-06-22","	2020-06-23","	2020-06-24","	2020-06-25","	2020-06-26","	2020-06-27","	2020-06-28","	2020-06-29","	2020-06-30","	2020-07-01","	2020-07-02","	2020-07-03","	2020-07-04","	2020-07-05","	2020-07-06","	2020-07-07","	2020-07-08","	2020-07-09","	2020-07-10","	2020-07-11","	2020-07-12","	2020-07-13","	2020-07-14","	2020-07-15","	2020-07-16","	2020-07-17","	2020-07-18","	2020-07-19","	2020-07-20","	2020-07-21","	2020-07-22","	2020-07-23","	2020-07-24","	2020-07-25","	2020-07-26","	2020-07-27","	2020-07-28","	2020-07-29","	2020-07-30","	2020-07-31","	2020-08-01","	2020-08-02","	2020-08-03","	2020-08-04","	2020-08-05","	2020-08-06","	2020-08-07","	2020-08-08","	2020-08-09","	2020-08-10","	2020-08-11","	2020-08-12","	2020-08-13","	2020-08-14","	2020-08-15","	2020-08-16","	2020-08-17","	2020-08-18","	2020-08-19","	2020-08-20","	2020-08-21","	2020-08-22","	2020-08-23","	2020-08-24","	2020-08-25","	2020-08-26","	2020-08-27","	2020-08-28","	2020-08-29","	2020-08-30","	2020-08-31","	2020-09-01","	2020-09-02","	2020-09-03","	2020-09-04","	2020-09-05","	2020-09-06","	2020-09-07","	2020-09-08","	2020-09-09","	2020-09-10","	2020-09-11","	2020-09-12","	2020-09-13","	2020-09-14","	2020-09-15","	2020-09-16","	2020-09-17","	2020-09-18","	2020-09-19","	2020-09-20","	2020-09-21","	2020-09-22","	2020-09-23","	2020-09-24","	2020-09-25","	2020-09-26","	2020-09-27","	2020-09-28","	2020-09-29","	2020-09-30","	2020-10-01","	2020-10-02","	2020-10-03","	2020-10-04","	2020-10-05","	2020-10-06","	2020-10-07","	2020-10-08","	2020-10-09","	2020-10-10","	2020-10-11","	2020-10-12","	2020-10-13","	2020-10-14","	2020-10-15","	2020-10-16","	2020-10-17","	2020-10-18","	2020-10-19","	2020-10-20","	2020-10-21","	2020-10-22","	2020-10-23","	2020-10-24","	2020-10-25","	2020-10-26","	2020-10-27","	2020-10-28","	2020-10-29","	2020-10-30","	2020-10-31","	2020-11-01","	2020-11-02","	2020-11-03","	2020-11-04","	2020-11-05","	2020-11-06","	2020-11-07","	2020-11-08","	2020-11-09","	2020-11-10","	2020-11-11","	2020-11-12","	2020-11-13","	2020-11-14","	2020-11-15","	2020-11-16","	2020-11-17","	2020-11-18","	2020-11-19","	2020-11-20","	2020-11-21","	2020-11-22","	2020-11-23","	2020-11-24","	2020-11-25","	2020-11-26","	2020-11-27","	2020-11-28","	2020-11-29","	2020-11-30","	2020-12-01","	2020-12-02","	2020-12-03","	2020-12-04","	2020-12-05","	2020-12-06","	2020-12-07","	2020-12-08","	2020-12-09","	2020-12-10","	2020-12-11","	2020-12-12","	2020-12-13","	2020-12-14","	2020-12-15","	2020-12-16","	2020-12-17","	2020-12-18","	2020-12-19","	2020-12-20","	2020-12-21","	2020-12-22","	2020-12-23","	2020-12-24","	2020-12-25","	2020-12-26","	2020-12-27","	2020-12-28","	2020-12-29","	2020-12-30","	2020-12-31","	2021-01-01","	2021-01-02","	2021-01-03","	2021-01-04","	2021-01-05","	2021-01-06"
"	/bop/invoice/ :: receipt_download_success","0","0","0","0","0","0","0","0","0","0","0","0","0","0","0","0","0","0","0","0","0","0","0","0","0","0","0","0","0","0","0","0","0","0","0","0","0","0","0","0","0","0","0","0","0","0","0","0","0","0","0","0","0","0","0","0","0","0","0","0","0","0","0","0","0","0","0","0","0","0","0","0","0","0","0","0","0","0","0","0","0","0","0","0","0","0","0","0","0","0","0","0","0","0","0","0","0","0","0","0","0","0","0","0","5","121","104","96","80","28","14","114","117","109","115","111","26","16","128","150","118","94","97","30","17","141","115","141","133","108","31","16","143","128","152","104","121","10","11","28","162","129","141","178","39","26","283","214","136","130","134","16","26","177","128","123","104","146","28","18","182","155","117","130","124","20","12","145","121","126","123","152","15","12","178","145","187","155","57","16","13","146","127","74","70","66","10","10","108","74","76","71","68","18","12","80","68","57","35","67","7","7","61","48","52","50","52","8","9","83","43","52","51","53","4","8","51","62","60","61","88","9","7","63","61","53","61","54","7","4","66","54","48","41","63","11","6","59","46","56","52","57","9","4","11","99","59","56","61","3","5","58","65","41","47","62","9","7","51","51","33","51","54","10","8","64","78","71","49","52","6","17","71","52","69","34","45","10","6","39","79","39","56","56","3","7","78","59","37","70","44","14","5","73","53","53","47","49","3","9","68","69","45","58","39","8","7","73","55","56","38","61","10","7","58","51","56","37","41","7","8","61","55","30","1","9","8","4","75","42","60","46","38","7","6","43","62","51","44","34","7","5","54","45","39","33","41","5","7","43","27","36","14","5","6","23","57","41","51","28","7","7","10","73","15","0"
"	/bop/invoice/ :: static_invoice_receipt_download_success","0","0","0","0","0","0","0","0","0","0","0","0","0","0","0","0","0","0","0","0","0","0","0","0","0","0","0","0","0","0","0","0","0","0","0","0","0","0","0","0","0","0","0","0","0","0","0","0","0","0","0","0","0","0","0","0","0","0","0","0","0","0","0","0","0","0","0","0","0","0","0","0","0","0","0","0","0","0","0","0","0","0","0","0","0","0","0","0","0","0","0","0","0","0","0","0","0","0","0","0","0","0","0","0","0","0","0","0","0","0","0","0","0","0","0","0","0","0","0","0","0","0","0","0","0","0","0","0","0","0","0","0","0","0","0","0","0","0","0","0","0","0","0","0","0","0","0","0","0","0","0","0","0","0","0","0","0","0","0","0","0","0","0","0","0","0","0","0","0","0","0","0","0","0","0","0","0","0","0","0","0","0","0","0","0","0","0","0","0","0","0","0","0","0","0","0","0","0","0","0","0","0","0","0","0","0","0","0","0","0","0","0","0","0","0","0","0","0","0","0","0","0","0","0","0","0","0","0","0","0","0","0","0","0","0","0","0","0","0","0","0","0","0","0","0","0","0","0","0","0","0","0","0","0","0","0","0","0","0","0","0","0","0","0","0","0","0","0","0","0","0","0","0","0","0","0","0","0","0","0","0","0","0","0","0","0","0","0","0","0","0","0","0","0","0","0","0","0","0","0","0","0","0","0","0","0","0","0","0","0","0","0","0","0","0","0","0","0","0","0","0","0","0","0","0","0","0","0","0","0","0","0","0","0","0","0","0","0","0","0","0","0","0","0","0","0","0","0","0","0","0","0","0","0","0","0","0","0","0","0","0","0","0","0","21","35"
"	/insured :: insured_invoice_receipt_download_success","0","0","0","0","0","0","0","0","0","0","0","0","0","0","0","0","0","0","0","0","0","0","0","0","0","0","0","0","0","0","0","0","0","0","0","0","0","0","0","0","0","0","0","0","0","0","0","0","0","0","0","0","0","0","0","0","0","0","0","0","0","0","0","0","0","0","0","0","0","0","0","0","0","0","0","0","0","0","0","0","0","0","0","0","0","0","0","0","0","0","0","0","0","0","0","0","0","0","0","0","0","0","0","0","0","0","0","0","0","0","0","0","0","0","0","0","0","0","0","0","0","0","0","0","0","0","0","0","0","0","0","0","0","0","0","0","0","0","0","0","0","0","0","0","0","0","0","0","0","0","0","0","0","0","0","0","0","0","0","0","0","0","0","0","0","0","0","0","0","0","0","0","0","0","0","0","0","0","0","0","0","0","0","0","0","0","0","0","0","0","0","0","0","0","0","0","0","0","0","0","0","0","0","0","0","0","0","0","0","0","0","0","0","0","0","0","0","0","0","0","0","0","0","0","0","0","0","0","0","0","0","0","0","0","0","0","0","0","0","0","0","0","0","0","0","0","0","0","0","0","0","0","0","0","0","0","0","0","0","0","0","0","0","0","0","0","0","0","0","0","0","0","0","0","0","0","0","0","0","0","0","0","0","0","0","0","0","0","0","0","0","0","0","0","0","0","0","0","0","0","0","0","0","0","0","0","0","0","0","0","0","0","0","0","0","0","0","0","0","0","0","0","0","0","0","0","0","0","0","0","0","0","0","0","0","0","0","0","0","0","0","0","0","0","0","0","0","0","0","0","0","0","0","0","0","0","0","0","0","0","0","0","0","0","72","76"
