"	amplitude_id","	user_id","	city","	country","	device","	device_type","	dma","	ip_address","	language","	library","	os","	platform","	region","	gp:initial_utm_campaign","	gp:initial_utm_medium","	gp:initial_utm_source","	gp:utm_campaign","	gp:utm_medium","	gp:utm_source"
"	46226485453","	blake@soudersgroup.com","	Birmingham","	United States","	Windows","	Windows","	Birmingham, AL","	172.223.44.233","	English","	amplitude-js/4.2.1","	Chrome 88","	Web","	Alabama","	","	","	","	","	","	"
"	46514112157","	alamm@hig-us.com","	Sugar Land","	United States","	Windows","	Windows","	Houston, TX","	50.252.43.45","	English","	amplitude-js/4.2.1","	Chrome 89","	Web","	Texas","	","	","	","	","	","	"
"	46921815863","	carol@bayoucityri.com","	Houston","	United States","	Windows","	Windows","	Houston, TX","	104.11.204.46","	English","	amplitude-js/4.2.1","	Chrome 88","	Web","	Texas","	","	","	","	","	","	"
"	46962475624","	jeff.barry@barryinsurancegroup.com","	Pearland","	United States","	Windows","	Windows","	Houston, TX","	173.11.171.133","	English","	amplitude-js/4.2.1","	Chrome 88","	Web","	Texas","	","	","	","	","	","	"
"	47055477879","	info@taoconsultant.com","	New York","	United States","	Windows","	Windows","	New York, NY","	74.68.156.28","	English","	amplitude-js/4.2.1","	Chrome 88","	Web","	New York","	","	","	","	","	","	"
"	47088279645","	jaysussman123@gmail.com","	Frisco","	United States","	Windows","	Windows","	Denver, CO","	98.245.199.224","	English","	amplitude-js/4.2.1","	Chrome 88","	Web","	Colorado","	","	","	","	","	","	"
"	47168741173","	aperez@safeguardnow.com","	Harlingen","	United States","	Windows","	Windows","	Harlingen-Weslaco-McAllen, TX","	71.78.238.194","	English","	amplitude-js/4.2.1","	Chrome 88","	Web","	Texas","	","	","	","	","	","	"
"	47246558946","	michael@palmettomoon.com","	Mt. Pleasant","	United States","	Windows","	Windows","	Charleston, SC","	76.23.126.135","	English","	amplitude-js/4.2.1","	Chrome 88","	Web","	South Carolina","	","	","	","	","	","	"
"	50222056664","	esin@newageins.com","	Queens","	United States","	Windows","	Windows","	New York, NY","	24.90.162.50","	English","	amplitude-js/4.2.1","	Chrome 88","	Web","	New York","	","	","	","	","	","	"
"	50534462962","	jasonkillings@allstate.com","	Miami","	United States","	Windows","	Windows","	Miami-Ft. Lauderdale, FL","	50.238.146.130","	English","	amplitude-js/4.2.1","	Chrome 88","	Web","	Florida","	","	","	","	","	","	"
"	51789540618","	tforstner@tingoins.com","	Huntington","	United States","	Windows","	Windows","	New York, NY","	47.23.59.155","	English","	amplitude-js/4.2.1","	Chrome 88","	Web","	New York","	","	","	","	","	","	"
"	55045145448","	jlopez@safeguardnow.com","	McAllen","	United States","	Windows","	Windows","	Harlingen-Weslaco-McAllen, TX","	66.68.231.205","	English","	amplitude-js/4.2.1","	Chrome 88","	Web","	Texas","	","	","	","	","	","	"
"	56036425771","	nlutz@ironridgeinsurance.com","	Lehigh Acres","	United States","	Windows","	Windows","	Ft. Myers-Naples, FL","	71.200.218.170","	English","	amplitude-js/4.2.1","	Chrome 89","	Web","	Florida","	","	","	","	","	","	"
"	56677294270","	jkoecke@slbig.com","	Denver","	United States","	Windows","	Windows","	Denver, CO","	73.14.233.203","	English","	amplitude-js/4.2.1","	Chrome 88","	Web","	Colorado","	","	","	","	","	","	"
"	57345705083","	michelle_johnson1@ajg.com","	Schaumburg","	United States","	Windows","	Windows","	Chicago, IL","	151.147.196.21","	English","	amplitude-js/4.2.1","	Chrome 87","	Web","	Illinois","	","	","	","	","	","	"
"	60548739024","	armellj@gmail.com","	Annapolis","	United States","	Windows","	Windows","	Baltimore, MD","	50.235.149.82","	English","	amplitude-js/4.2.1","	Chrome 88","	Web","	Maryland","	","	","	","	","	","	"
"	60773740242","	ciafscomm1@optonline.net","	Central Islip","	United States","	Windows","	Windows","	New York, NY","	69.113.56.166","	English","	amplitude-js/4.2.1","	Chrome 88","	Web","	New York","	","	","	","	","	","	"
"	66365542946","	jgo@morstan.com","	Queens","	United States","	Windows","	Windows","	New York, NY","	160.72.81.162","	English","	amplitude-js/4.2.1","	Chrome 88","	Web","	New York","	","	","	","	","	","	"
"	66446326461","	dalerevels@gmail.com","	Orlando","	United States","	Windows","	Windows","	Orlando-Daytona Beach, FL","	108.188.113.89","	English","	amplitude-js/4.2.1","	Chrome 87","	Web","	Florida","	","	","	","	","	","	"
"	71501349104","	info@sejongus.com","	Englewood","	United States","	Windows","	Windows","	New York, NY","	74.73.172.106","	English","	amplitude-js/4.2.1","	Chrome 88","	Web","	New Jersey","	","	","	","	","	","	"
"	71908688011","	mberg@pinkhamagency.com","	Hicksville","	United States","	Windows","	Windows","	New York, NY","	71.125.62.66","	English","	amplitude-js/4.2.1","	Chrome 88","	Web","	New York","	","	","	","	","	","	"
"	74078995984","	hlanaux@naiala.com","	Pierre Part","	United States","	Windows","	Windows","	Baton Rouge, LA","	204.155.62.178","	English","	amplitude-js/4.2.1","	IE 11","	Web","	Louisiana","	","	","	","	","	","	"
"	74984065470","	inna@threestarbrokerage.com","	Brooklyn","	United States","	Windows","	Windows","	New York, NY","	67.87.241.194","	English","	amplitude-js/4.2.1","	Chrome 88","	Web","	New York","	","	","	","	","	","	"
"	76808512728","	m.bigham@pacificcrestinsurance.com","	Dallas","	United States","	Windows","	Windows","	Dallas-Ft. Worth, TX","	66.64.16.46","	English","	amplitude-js/4.2.1","	Chrome 88","	Web","	Texas","	","	","	","	","	","	"
"	77261479701","	cblisko@lhbinsurance.com","	Monsey","	United States","	Windows","	Windows","	New York, NY","	96.250.55.205","	English","	amplitude-js/4.2.1","	Edge 18","	Web","	New York","	","	","	","	","	","	"
"	77415088926","	stephen@texasinsuranceoptions.net","	Arlington","	United States","	Windows","	Windows","	Dallas-Ft. Worth, TX","	70.241.107.124","	English","	amplitude-js/4.2.1","	Chrome 88","	Web","	Texas","	","	","	","	","	","	"
"	78902152438","	ken.haring@gmail.com","	Egg Harbor","	United States","	Windows","	Windows","	Philadelphia, PA","	76.117.9.234","	English","	amplitude-js/4.2.1","	Chrome 88","	Web","	New Jersey","	","	","	","	","	","	"
"	81211218442","	craigs@fabricantinsurance.com","	Roslyn Heights","	United States","	Windows","	Windows","	New York, NY","	71.105.231.122","	English","	amplitude-js/4.2.1","	Edge 17","	Web","	New York","	","	","	","	","	","	"
"	81541143807","	hpatel@attuneinsurance.com","	Bozeman","	United States","	Mac","	Mac","	Butte-Bozeman, MT","	97.121.232.25","	English","	amplitude-js/4.2.1","	Chrome 88","	Web","	Montana","	help center","	submit a request","	zendesk","	help center","	submit a request","	zendesk"
"	82036767561","	rick@bloomrealtyinsurance.com","	Toms River","	United States","	Windows","	Windows","	New York, NY","	50.77.13.246","	English","	amplitude-js/4.2.1","	Chrome 88","	Web","	New Jersey","	","	","	","	","	","	"
"	82305229713","	fahad@tgiagency.com","	Richmond","	United States","	Windows","	Windows","	Houston, TX","	173.224.107.96","	English","	amplitude-js/4.2.1","	Chrome 88","	Web","	Texas","	","	","	","	","	","	"
"	86539733166","	dan.zottoli@fdaservices.com","	Wellington","	United States","	Windows","	Windows","	West Palm Beach-Ft. Pierce, FL","	73.205.132.87","	English","	amplitude-js/4.2.1","	Chrome 88","	Web","	Florida","	","	","	","	","	","	"
"	86890032929","	liam@riskblock.com","	Rockville Centre","	United States","	Windows","	Windows","	New York, NY","	100.38.67.200","	English","	amplitude-js/4.2.1","	Chrome 88","	Web","	New York","	","	","	","	","	","	"
"	87834663443","	jeff@myrtlebeachinsurance.com","	Myrtle Beach","	United States","	Windows","	Windows","	Florence-Myrtle Beach, SC","	75.176.235.29","	English","	amplitude-js/4.2.1","	IE 11","	Web","	South Carolina","	","	","	","	","	","	"
"	87990874079","	dee@floridainsurancehub.com","	Cocoa","	United States","	Windows","	Windows","	Orlando-Daytona Beach, FL","	99.75.60.119","	English","	amplitude-js/4.2.1","	Chrome 88","	Web","	Florida","	","	","	","	","	","	"
"	89705077091","	sdemenjon@attuneinsurance.com","	New York","	United States","	Mac","	Mac","	New York, NY","	72.69.127.204","	English","	amplitude-js/4.2.1","	Chrome 88","	Web","	New York","	","	","	","	","	","	"
"	89972217085","	tleach@scottishamerican.com","	Hialeah","	United States","	Windows","	Windows","	Miami-Ft. Lauderdale, FL","	73.85.57.200","	English","	amplitude-js/4.2.1","	Chrome 88","	Web","	Florida","	","	","	","	","	","	"
"	90145149389","	drussell@attuneinsurance.com","	New York","	United States","	Mac","	Mac","	New York, NY","	24.103.68.74","	English","	amplitude-js/4.2.1","	Chrome 88","	Web","	New York","	","	","	","	","	","	"
"	90453178435","	jeremy@jupitercoverage.com","	Palm Beach Gardens","	United States","	Windows","	Windows","	West Palm Beach-Ft. Pierce, FL","	98.249.221.121","	English","	amplitude-js/4.2.1","	Chrome 88","	Web","	Florida","	","	","	","	","	","	"
"	91671902082","	kathyd@waldeninsurance.com","	Orlando","	United States","	Windows","	Windows","	Orlando-Daytona Beach, FL","	97.79.24.106","	English","	amplitude-js/4.2.1","	Chrome 88","	Web","	Florida","	","	","	","	","	","	"
"	91696501325","	angie@acna.us","	Huntersville","	United States","	Windows","	Windows","	Charlotte, NC","	66.57.56.10","	English","	amplitude-js/4.2.1","	Chrome 88","	Web","	North Carolina","	","	","	","	","	","	"
"	93286066371","	jypinsuranceagency@gmail.com","	Teaneck","	United States","	Windows","	Windows","	New York, NY","	74.105.16.136","	English","	amplitude-js/4.2.1","	Chrome 88","	Web","	New Jersey","	","	","	","	","	","	"
"	93383211852","	pauliii@burkholderins.com","	Mobile","	United States","	Windows","	Windows","	Mobile, AL-Pensacola, FL","	204.155.62.177","	English","	amplitude-js/4.2.1","	Chrome 88","	Web","	Alabama","	","	","	","	","	","	"
"	93707415541","	nancy@thamesbatre.com","	Mobile","	United States","	Windows","	Windows","	Mobile, AL-Pensacola, FL","	69.57.54.226","	English","	amplitude-js/4.2.1","	Chrome 88","	Web","	Alabama","	","	","	","	","	","	"
"	93844898983","	mary.dwane@bxsi.com","	Alpharetta","	United States","	Windows","	Windows","	Atlanta, GA","	104.129.205.114","	English","	amplitude-js/4.2.1","	Chrome 88","	Web","	Georgia","	","	","	","	","	","	"
"	94011537517","	mcapes@way2insure.com","	Dade City","	United States","	Windows","	Windows","	Tampa-St Petersburg (Sarasota), FL","	108.191.252.249","	English","	amplitude-js/4.2.1","	Chrome 88","	Web","	Florida","	","	","	","	","	","	"
"	94923788412","	paula.gibson@rtspecialty.com","	","	United States","	Windows","	Windows","	","	208.82.109.194","	English","	amplitude-js/4.2.1","	Chrome 88","	Web","	New York","	","	","	","	","	","	"
"	96003132405","	christian@easternassured.com","	Charlotte","	United States","	Windows","	Windows","	Charlotte, NC","	75.10.165.240","	English","	amplitude-js/4.2.1","	Firefox 86","	Web","	North Carolina","	","	","	","	","	","	"
"	96922419304","	insurance_ny@taosglobalgroup.com","	Queens","	United States","	Windows","	Windows","	New York, NY","	74.101.126.29","	English","	amplitude-js/4.2.1","	Chrome 88","	Web","	New York","	","	","	","	","	","	"
"	97100821992","	klocasale@jpperry.com","	Jacksonville","	United States","	Windows","	Windows","	Jacksonville, FL","	12.228.61.170","	English","	amplitude-js/4.2.1","	IE 11","	Web","	Florida","	","	","	","	","	","	"
"	97770733162","	bhales@chadwickinsurance.com","	Wilmington","	United States","	Windows","	Windows","	Wilmington, NC","	98.101.196.142","	English","	amplitude-js/4.2.1","	Chrome 88","	Web","	North Carolina","	","	","	","	","	","	"
"	99500319236","	jkaplan@scottishamerican.com","	Plainview","	United States","	Mac","	Mac","	New York, NY","	108.41.81.158","	English","	amplitude-js/4.2.1","	Chrome 88","	Web","	New York","	","	","	","	","	","	"
"	100071704526","	steve@appleinsuranceagency.com","	Bay Shore","	United States","	Windows","	Windows","	New York, NY","	47.20.253.251","	English","	amplitude-js/4.2.1","	Chrome 88","	Web","	New York","	","	","	","	","	","	"
"	102900782192","	jypark@solomonus.com","	Fort Lee","	United States","	Windows","	Windows","	New York, NY","	100.1.167.110","	English","	amplitude-js/4.2.1","	Chrome 88","	Web","	New Jersey","	","	","	","	","	","	"
"	104054422948","	momin@bestoptionins.com","	Houston","	United States","	Windows","	Windows","	Houston, TX","	73.77.112.14","	English","	amplitude-js/4.2.1","	Chrome 88","	Web","	Texas","	","	","	","	","	","	"
"	104585427201","	tyler@parkerdouglas.insure","	Denver","	United States","	Windows","	Windows","	Denver, CO","	75.71.169.192","	English","	amplitude-js/4.2.1","	Chrome 88","	Web","	Colorado","	","	","	","	","	","	"
"	106446853160","	naomi.aranda","	Georgetown","	United States","	Windows","	Windows","	Charleston, SC","	198.52.234.79","	English","	amplitude-js/4.2.1","	Chrome 88","	Web","	South Carolina","	","	","	","	","	","	"
"	110160558269","	tmurray@cannellainsurance.com","	Tampa","	United States","	Windows","	Windows","	Tampa-St Petersburg (Sarasota), FL","	72.77.174.40","	English","	amplitude-js/4.2.1","	Chrome 88","	Web","	Florida","	","	","	","	","	","	"
"	111247782920","	salimah@getpreferred.com","	Dallas","	United States","	Windows","	Windows","	Dallas-Ft. Worth, TX","	99.125.229.145","	English","	amplitude-js/4.2.1","	Chrome 88","	Web","	Texas","	","	","	","	","	","	"
"	111626521039","	john.poucher@firstconnectinsurance.com","	Rocklin","	United States","	Windows","	Windows","	Sacramento-Stockton-Modesto, CA","	104.220.68.216","	English","	amplitude-js/4.2.1","	Chrome 88","	Web","	California","	","	","	","	","	","	"
"	113524027845","	csherman@princeins.com","	New York","	United States","	Windows","	Windows","	New York, NY","	108.27.219.44","	English","	amplitude-js/4.2.1","	Chrome 88","	Web","	New York","	","	","	","	","	","	"
"	116205379370","	nmstaruch@burns-wilcox.com","	Farmington Hills","	United States","	Windows","	Windows","	Detroit, MI","	63.85.131.9","	English","	amplitude-js/4.2.1","	Chrome 88","	Web","	Michigan","	","	","	","	","	","	"
"	116685971884","	erivero@rig-ins.com","	Miami","	United States","	Windows","	Windows","	Miami-Ft. Lauderdale, FL","	104.7.47.177","	English","	amplitude-js/4.2.1","	Chrome 88","	Web","	Florida","	","	","	","	","	","	"
"	117650594225","	insurance00@gmail.com","	Alpharetta","	United States","	Windows","	Windows","	Atlanta, GA","	71.59.20.69","	English","	amplitude-js/4.2.1","	Chrome 88","	Web","	Georgia","	","	","	","	","	","	"
"	118468982030","	hershy@klientinsurance.com","	Brooklyn","	United States","	Windows","	Windows","	New York, NY","	72.68.169.188","	English","	amplitude-js/4.2.1","	Chrome 88","	Web","	New York","	","	","	","	","	","	"
"	118789865396","	martha@tsiallc.com","	El Paso","	United States","	Windows","	Windows","	El Paso, TX","	70.120.229.103","	English","	amplitude-js/4.2.1","	Chrome 88","	Web","	Texas","	","	","	","	","	","	"
"	118923269511","	info@smartapple.us","	Lahore","	Pakistan","	Windows","	Windows","	","	202.166.173.115","	English","	amplitude-js/4.2.1","	Chrome 87","	Web","	Punjab","	","	","	","	","	","	"
"	119382610674","	anthony@harbor.ai","	Dunellen","	United States","	Mac","	Mac","	New York, NY","	148.74.229.86","	English","	amplitude-js/4.2.1","	Chrome 88","	Web","	New Jersey","	","	","	","	","	","	"
"	119861376029","	rick@divelinsurance.com","	San Clemente","	United States","	Mac","	Mac","	Los Angeles, CA","	24.249.34.53","	English","	amplitude-js/4.2.1","	Chrome 88","	Web","	California","	","	","	","	","	","	"
"	119884666643","	ikleinman@gvwins.com","	Bay Shore","	United States","	Windows","	Windows","	New York, NY","	75.99.36.162","	English","	amplitude-js/4.2.1","	Chrome 88","	Web","	New York","	","	","	","	","	","	"
"	122884438226","	alison@soudersgroup.com","	Birmingham","	United States","	Windows","	Windows","	Birmingham, AL","	172.223.44.233","	English","	amplitude-js/4.2.1","	Chrome 88","	Web","	Alabama","	","	","	","	","	","	"
"	122907495227","	judy.freeman@bxsi.com","	Dallas","	United States","	Windows","	Windows","	Dallas-Ft. Worth, TX","	165.225.216.186","	English","	amplitude-js/4.2.1","	Chrome 88","	Web","	Texas","	","	","	","	","	","	"
"	123368877314","	mfulton@jwedens.com","	Melbourne Beach","	United States","	Windows","	Windows","	Orlando-Daytona Beach, FL","	131.148.29.162","	English","	amplitude-js/4.2.1","	Chrome 88","	Web","	Florida","	","	","	","	","	","	"
"	125121715793","	james@firstwayinsurance.com","	Walnut","	United States","	Windows","	Windows","	Los Angeles, CA","	71.84.62.73","	English","	amplitude-js/4.2.1","	Chrome 88","	Web","	California","	","	","	","	","	","	"
"	127458830615","	jdishon@ggiausa.com","	Beaumont","	United States","	Windows","	Windows","	Beaumont-Port Arthur, TX","	68.206.6.74","	English","	amplitude-js/4.2.1","	Chrome 88","	Web","	Texas","	","	","	","	","	","	"
"	132363043769","	mark.mays@nowellagency.com","	Brandon","	United States","	Windows","	Windows","	Jackson, MS","	12.48.241.43","	English","	amplitude-js/4.2.1","	Chrome 88","	Web","	Mississippi","	","	","	","	","	","	"
"	132691660683","	info@sgfinancialinc.com","	Allen","	United States","	Windows","	Windows","	Dallas-Ft. Worth, TX","	47.190.94.215","	English","	amplitude-js/4.2.1","	Chrome 88","	Web","	Texas","	","	","	","	","	","	"
"	134385477229","	jdismukes@morrisinsmobile.com","	Mobile","	United States","	Windows","	Windows","	Mobile, AL-Pensacola, FL","	142.190.82.42","	English","	amplitude-js/4.2.1","	Chrome 88","	Web","	Alabama","	","	","	","	","	","	"
"	134575616080","	info@oakmontinsure.com","	Queens","	United States","	Windows","	Windows","	New York, NY","	96.246.234.156","	English","	amplitude-js/4.2.1","	Chrome 88","	Web","	New York","	","	","	","	","	","	"
"	134597902290","	tal@windhaminsurancegroup.com","	Santee","	United States","	Windows","	Windows","	Columbia, SC","	50.123.170.181","	English","	amplitude-js/4.2.1","	Chrome 88","	Web","	South Carolina","	","	","	","	","	","	"
"	134808545797","	","	Charleston","	United States","	Apple iPhone","	Apple iPhone","	Charleston, SC","	73.217.146.219","	English","	amplitude-js/4.2.1","	Mobile Safari 14","	Web","	South Carolina","	","	","	","	","	","	"
"	134857385382","	wchen@gvision.com","	New York","	United States","	Windows","	Windows","	New York, NY","	66.65.139.151","	English","	amplitude-js/4.2.1","	Chrome 88","	Web","	New York","	","	","	","	","	","	"
"	135906276499","	deborah@anchorins.net","	Plymouth","	United States","	Windows","	Windows","	Detroit, MI","	204.155.61.217","	English","	amplitude-js/4.2.1","	Chrome 88","	Web","	Michigan","	","	","	","	","	","	"
"	137227873367","	abcinsuranceus@gmail.com","	San Mateo","	United States","	Mac","	Mac","	San Francisco-Oakland-San Jose, CA","	67.180.236.114","	Chinese","	amplitude-js/4.2.1","	Chrome 88","	Web","	California","	","	","	","	","	","	"
"	137384070396","	jenniehan@koraminsurance.com","	Los Angeles","	United States","	Windows","	Windows","	Los Angeles, CA","	99.60.17.35","	English","	amplitude-js/4.2.1","	Chrome 89","	Web","	California","	","	","	","	","	","	"
"	138631016932","	thuang@excelcoverage.com","	New York","	United States","	Windows","	Windows","	New York, NY","	67.245.151.187","	English","	amplitude-js/4.2.1","	Chrome 88","	Web","	New York","	","	","	","	","	","	"
"	139895810956","	awpollard@zianet.com","	Deming","	United States","	Windows","	Windows","	Albuquerque-Santa Fe, NM","	76.113.113.56","	English","	amplitude-js/4.2.1","	Chrome 88","	Web","	New Mexico","	","	","	","	","	","	"
"	140118816694","	nicole@mymig.com","	Pompano Beach","	United States","	Windows","	Windows","	Miami-Ft. Lauderdale, FL","	162.17.117.73","	English","	amplitude-js/4.2.1","	Chrome 88","	Web","	Florida","	","	","	","	","	","	"
"	140765210495","	","	Mesquite","	United States","	Windows","	Windows","	Dallas-Ft. Worth, TX","	99.91.167.73","	English","	amplitude-js/4.2.1","	Firefox 86","	Web","	Texas","	","	","	","	","	","	"
"	140837959769","	insurance@cosmopolitanbr.com","	Brooklyn","	United States","	Windows","	Windows","	New York, NY","	74.73.156.233","	English","	amplitude-js/4.2.1","	Chrome 88","	Web","	New York","	","	","	","	","	","	"
"	143310064632","	communitymultiserv@gmail.com","	Hyattsville","	United States","	Windows","	Windows","	Washington, DC (Hagerstown, MD)","	96.255.93.80","	English","	amplitude-js/4.2.1","	Chrome 88","	Web","	Maryland","	","	","	","	","	","	"
"	144039575597","	jennifer@markusinsurance.com","	Lawrenceburg","	United States","	Windows","	Windows","	Nashville, TN","	24.158.108.68","	English","	amplitude-js/4.2.1","	Chrome 88","	Web","	Tennessee","	","	","	","	","	","	"
"	144731918290","	marc@remcoinsuranceservices.com","	Bensalem","	United States","	Windows","	Windows","	Philadelphia, PA","	69.253.111.71","	English","	amplitude-js/4.2.1","	Chrome 88","	Web","	Pennsylvania","	","	","	","	","	","	"
"	144856320630","	shelby@osborneins.com","	Paris","	United States","	Windows","	Windows","	Lexington, KY","	23.121.182.104","	English","	amplitude-js/4.2.1","	Chrome 88","	Web","	Kentucky","	","	","	","	","	","	"
"	144944738592","	commercial@palomino1.com","	Gilbert","	United States","	Windows","	Windows","	Phoenix, AZ","	98.172.105.35","	English","	amplitude-js/4.2.1","	Chrome 88","	Web","	Arizona","	","	","	","	","	","	"
"	147286495576","	paulette@kokkorisins.com","	Chicago","	United States","	Windows","	Windows","	Chicago, IL","	64.14.237.2","	English","	amplitude-js/4.2.1","	IE 11","	Web","	Illinois","	","	","	","	","	","	"
"	150269085286","	lagulfins@gmail.com","	Baton Rouge","	United States","	Windows","	Windows","	Baton Rouge, LA","	70.183.210.118","	English","	amplitude-js/4.2.1","	Chrome 88","	Web","	Louisiana","	","	","	","	","	","	"
"	154074359397","	whitmaninsurancellc@gmail.com","	Pensacola","	United States","	Mac","	Mac","	Mobile, AL-Pensacola, FL","	70.187.57.171","	English","	amplitude-js/4.2.1","	Chrome 88","	Web","	Florida","	","	","	","	","	","	"
"	159205754314","	paulette@landmarkinsuranceinc.com","	Salisbury","	United States","	Windows","	Windows","	Salisbury, MD","	73.135.124.132","	English","	amplitude-js/4.2.1","	Chrome 88","	Web","	Maryland","	","	","	","	","	","	"
"	159286233437","	cowboy3638888@gmail.com","	Ville Platte","	United States","	Windows","	Windows","	Lafayette, LA","	99.195.45.40","	English","	amplitude-js/4.2.1","	Chrome 88","	Web","	Louisiana","	","	","	","	","	","	"
"	159515995704","	sami@kisinsurance.com","	San Jose","	United States","	Windows","	Windows","	San Francisco-Oakland-San Jose, CA","	76.103.210.155","	English","	amplitude-js/4.2.1","	Firefox 86","	Web","	California","	","	","	","	","	","	"
"	160130180192","	kicker@kickerinsuresme.com","	Houston","	United States","	Windows","	Windows","	Houston, TX","	76.214.230.19","	English","	amplitude-js/4.2.1","	Chrome 88","	Web","	Texas","	","	","	","	","	","	"
"	161069858645","	dora@haywardbrownflagler.com","	Palm Coast","	United States","	Windows","	Windows","	Orlando-Daytona Beach, FL","	71.43.108.242","	English","	amplitude-js/4.2.1","	Chrome 88","	Web","	Florida","	","	","	","	","	","	"
"	163259896922","	kyle.bolivar@bbcoinsurance.com","	Lafayette","	United States","	Windows","	Windows","	Lafayette, LA","	76.72.62.185","	English","	amplitude-js/4.2.1","	Chrome 88","	Web","	Louisiana","	","	","	","	","	","	"
"	164013240805","	jonathan@handwergerinsurance.com","	Mamaroneck","	United States","	Windows","	Windows","	New York, NY","	173.220.228.147","	English","	amplitude-js/4.2.1","	Chrome 88","	Web","	New York","	","	","	","	","	","	"
"	167706513230","	insuranceproswfl@gmail.com","	Cape Coral","	United States","	Windows","	Windows","	Ft. Myers-Naples, FL","	71.208.152.99","	English","	amplitude-js/4.2.1","	Chrome 88","	Web","	Florida","	","	","	","	","	","	"
"	170091539884","	","	Charleston","	United States","	Windows","	Windows","	Charleston, SC","	24.11.171.185","	English","	amplitude-js/4.2.1","	Chrome 88","	Web","	South Carolina","	","	","	","	","	","	"
"	170232025878","	alexandra@cavikinsurance.com","	Wilmington","	United States","	Windows","	Windows","	Wilmington, NC","	71.14.126.71","	English","	amplitude-js/4.2.1","	Chrome 88","	Web","	North Carolina","	","	","	","	","	","	"
"	171090938881","	tmjgroupins@gmail.com","	Madison","	United States","	Windows","	Windows","	Huntsville-Decatur (Florence), AL","	24.42.159.36","	English","	amplitude-js/4.2.1","	Chrome 88","	Web","	Alabama","	","	","	","	","	","	"
"	174563045904","	erlic@igeeinsurance.com","	Lake Mary","	United States","	Windows","	Windows","	Orlando-Daytona Beach, FL","	71.47.20.7","	English","	amplitude-js/4.2.1","	Chrome 88","	Web","	Florida","	","	","	","	","	","	"
"	174811631982","	gant@liveoakssi.com","	Saint Simons Island","	United States","	Windows","	Windows","	Jacksonville, FL","	66.177.197.133","	English","	amplitude-js/4.2.1","	Chrome 88","	Web","	Georgia","	","	","	","	","	","	"
"	175880626998","	","	Queens","	United States","	Windows","	Windows","	New York, NY","	70.104.134.250","	English","	amplitude-js/4.2.1","	Chrome 88","	Web","	New York","	","	","	","	","	","	"
"	178546875916","	erika.montano@estrellainsurance.com","	Tucson","	United States","	Windows","	Windows","	Tucson (Sierra Vista), AZ","	24.251.129.207","	English","	amplitude-js/4.2.1","	Chrome 88","	Web","	Arizona","	","	","	","	","	","	"
"	181429207751","	vitaliy@718insurance.com","	Brooklyn","	United States","	Windows","	Windows","	New York, NY","	72.69.41.181","	English","	amplitude-js/4.2.1","	Chrome 88","	Web","	New York","	","	","	","	","	","	"
"	181471081241","	lisa@trustaia.com","	Eureka Springs","	United States","	Windows","	Windows","	Springfield, MO","	70.182.174.80","	English","	amplitude-js/4.2.1","	Chrome 88","	Web","	Arkansas","	","	","	","	","	","	"
"	182304588087","	ashley@trustaia.com","	Eureka Springs","	United States","	Windows","	Windows","	Springfield, MO","	70.182.174.80","	English","	amplitude-js/4.2.1","	Chrome 88","	Web","	Arkansas","	","	","	","	","	","	"
"	184629102017","	m.perez@gonzalez-agency.com","	Edcouch","	United States","	Windows","	Windows","	Harlingen-Weslaco-McAllen, TX","	74.123.104.33","	English","	amplitude-js/4.2.1","	Chrome 88","	Web","	Texas","	","	","	","	","	","	"
"	189188585628","	","	Houston","	United States","	Windows","	Windows","	Houston, TX","	73.32.4.169","	English","	amplitude-js/4.2.1","	Chrome 88","	Web","	Texas","	","	","	","	","	","	"
"	192334795780","	april@apriljonesinsurance.com","	Wilmington","	United States","	Windows","	Windows","	Wilmington, NC","	173.93.78.187","	English","	amplitude-js/4.2.1","	Chrome 88","	Web","	North Carolina","	","	","	","	","	","	"
"	192634656652","	kalmira@epinsurance.com","	Des Moines","	United States","	Windows","	Windows","	Des Moines-Ames, IA","	13.67.213.63","	English","	amplitude-js/4.2.1","	Chrome 88","	Web","	Iowa","	","	","	","	","	","	"
"	197886824052","	kathy@thecareyagency.com","	Summerville","	United States","	Windows","	Windows","	Charleston, SC","	24.88.120.119","	English","	amplitude-js/4.2.1","	Chrome 88","	Web","	South Carolina","	","	","	","	","	","	"
"	197975207809","	independentinsure@outlook.com","	Phoenix","	United States","	Windows","	Windows","	Phoenix, AZ","	72.194.229.162","	English","	amplitude-js/4.2.1","	Chrome 86","	Web","	Arizona","	","	","	","	","	","	"
"	199562324202","	daphnel@kcal.net","	Fontana","	United States","	Windows","	Windows","	Los Angeles, CA","	65.60.81.149","	English","	amplitude-js/4.2.1","	Chrome 88","	Web","	California","	","	","	","	","	","	"
"	200689108467","	jnacpil@attuneinsurance.com","	New York","	United States","	Mac","	Mac","	New York, NY","	24.103.68.74","	English","	amplitude-js/4.2.1","	Chrome 88","	Web","	New York","	","	","	","	","	","	"
"	207317718764","	steve@s5s.biz","	Cortlandt Manor","	United States","	Windows","	Windows","	New York, NY","	69.113.131.84","	English","	amplitude-js/4.2.1","	Chrome 88","	Web","	New York","	","	","	","	","	","	"
"	208176175610","	amastrella@paychex.com","	Fairport","	United States","	Windows","	Windows","	Rochester, NY","	74.65.6.244","	English","	amplitude-js/4.2.1","	Chrome 88","	Web","	New York","	","	","	","	","	","	"
"	211335954732","	kim.keohane@ioausa.com","	Orange City","	United States","	Windows","	Windows","	Orlando-Daytona Beach, FL","	72.238.239.112","	English","	amplitude-js/4.2.1","	Chrome 88","	Web","	Florida","	","	","	","	","	","	"
"	212798523823","	sheila.serrano@ioausa.com","	Orlando","	United States","	Windows","	Windows","	Orlando-Daytona Beach, FL","	23.126.128.36","	English","	amplitude-js/4.2.1","	Chrome 88","	Web","	Florida","	","	","	","	","	","	"
"	212898670498","	","	DeLand","	United States","	Windows","	Windows","	Orlando-Daytona Beach, FL","	107.146.24.197","	English","	amplitude-js/4.2.1","	Chrome 88","	Web","	Florida","	","	","	","	","	","	"
"	213340348334","	bruce@accessaip.com","	Fort Lauderdale","	United States","	Windows","	Windows","	Miami-Ft. Lauderdale, FL","	50.253.175.21","	English","	amplitude-js/4.2.1","	Chrome 88","	Web","	Florida","	","	","	","	","	","	"
"	222245577302","	","	Little Rock","	United States","	Windows","	Windows","	Little Rock-Pine Bluff, AR","	40.143.193.132","	English","	amplitude-js/4.2.1","	Chrome 88","	Web","	Arkansas","	","	","	","	","	","	"
"	224588989303","	tngo@twfg.com","	Houston","	United States","	Windows","	Windows","	Houston, TX","	98.198.140.160","	English","	amplitude-js/4.2.1","	Chrome 88","	Web","	Texas","	","	","	","	","	","	"
"	224844530655","	creativemultiserv@gmail.com","	Queens","	United States","	Windows","	Windows","	New York, NY","	69.201.157.188","	English","	amplitude-js/4.2.1","	Chrome 88","	Web","	New York","	","	","	","	","	","	"
"	226581760577","	","	Yonkers","	United States","	Windows","	Windows","	New York, NY","	24.157.42.182","	English","	amplitude-js/4.2.1","	Chrome 88","	Web","	New York","	","	","	","	","	","	"
"	228348312214","	angela@cstoneig.com","	Sugar Land","	United States","	Mac","	Mac","	Houston, TX","	50.226.202.186","	English","	amplitude-js/4.2.1","	Chrome 88","	Web","	Texas","	","	","	","	","	","	"
"	231325981702","	kim@borealib.com","	Keyport","	United States","	Mac","	Mac","	New York, NY","	100.8.145.82","	English","	amplitude-js/4.2.1","	Safari 14","	Web","	New Jersey","	","	","	","	","	","	"
"	232397237326","	agiannetti@attuneinsurance.com","	New York","	United States","	Mac","	Mac","	New York, NY","	24.103.68.74","	English","	amplitude-js/4.2.1","	Chrome 88","	Web","	New York","	","	","	","	","	","	"
"	232779962998","	","	Pompano Beach","	United States","	Windows","	Windows","	Miami-Ft. Lauderdale, FL","	96.69.27.169","	English","	amplitude-js/4.2.1","	Chrome 88","	Web","	Florida","	","	","	","	","	","	"
"	232835301409","	","	Canandaigua","	United States","	Windows","	Windows","	Rochester, NY","	72.230.248.160","	English","	amplitude-js/4.2.1","	Chrome 86","	Web","	New York","	","	","	","	","	","	"
"	232983270968","	","	Port Orange","	United States","	Mac","	Mac","	Orlando-Daytona Beach, FL","	72.239.237.174","	English","	amplitude-js/4.2.1","	Chrome 88","	Web","	Florida","	","	","	","	","	","	"
"	233035110152","	jackie.nance@gia-tx.com","	Texas City","	United States","	Windows","	Windows","	Houston, TX","	98.199.31.121","	English","	amplitude-js/4.2.1","	Chrome 88","	Web","	Texas","	","	","	","	","	","	"
"	233592654180","	tpierce@sspins.com","	Richmond Hill","	United States","	Windows","	Windows","	Savannah, GA","	73.182.47.46","	English","	amplitude-js/4.2.1","	Chrome 88","	Web","	Georgia","	","	","	","	","	","	"
"	234130287293","	pawansharma2880@gmail.com","	Abbotsford","	Canada","	Windows","	Windows","	","	50.67.90.242","	English","	amplitude-js/4.2.1","	Firefox 86","	Web","	British Columbia","	","	","	","	","	","	"
"	234414780286","	","	Palm Beach Gardens","	United States","	Windows","	Windows","	West Palm Beach-Ft. Pierce, FL","	73.125.51.30","	English","	amplitude-js/4.2.1","	Chrome 88","	Web","	Florida","	","	","	","	","	","	"
"	234958471515","	","	Portland","	United States","	Mac","	Mac","	Portland-Auburn, ME","	198.255.245.128","	English","	amplitude-js/4.2.1","	Safari 14","	Web","	Maine","	","	","	","	","	","	"
"	235494221684","	","	North Fort Myers","	United States","	Windows","	Windows","	Ft. Myers-Naples, FL","	73.107.9.116","	English","	amplitude-js/4.2.1","	Chrome 88","	Web","	Florida","	","	","	","	","	","	"
"	235578781975","	info@southerninsured.com","	Spartanburg","	United States","	Windows","	Windows","	Greenville-Spartanburg, SC","	96.36.65.114","	English","	amplitude-js/4.2.1","	Chrome 88","	Web","	South Carolina","	","	","	","	","	","	"
"	236124945808","	","	Orangeburg","	United States","	Apple iPhone","	Apple iPhone","	Columbia, SC","	108.255.120.135","	English","	amplitude-js/4.2.1","	Mobile Safari 14","	Web","	South Carolina","	","	","	","	","	","	"
"	236290124636","	sbiadmin@ioausa.com","	Winter Springs","	United States","	Windows","	Windows","	Orlando-Daytona Beach, FL","	104.136.87.188","	English","	amplitude-js/4.2.1","	Chrome 87","	Web","	Florida","	","	","	","	","	","	"
"	236343181261","	","	New York","	United States","	Windows","	Windows","	New York, NY","	98.7.238.131","	English","	amplitude-js/4.2.1","	Chrome 88","	Web","	New York","	","	","	","	","	","	"
"	236347497786","	janessa.thomas@weinsuregroup.com","	Bloomfield Hills","	United States","	Windows","	Windows","	Detroit, MI","	96.80.217.162","	English","	amplitude-js/4.2.1","	Chrome 88","	Web","	Michigan","	","	","	","	","	","	"
"	236562890533","	","	Brooklyn","	United States","	Mac","	Mac","	New York, NY","	69.169.1.4","	English","	amplitude-js/4.2.1","	Chrome 87","	Web","	New York","	","	","	","	","	","	"
"	236575326498","	","	","	United States","	Windows","	Windows","	","	199.48.80.200","	English","	amplitude-js/4.2.1","	Chrome 88","	Web","	","	","	","	","	","	","	"
"	236587274707","	","	Wantagh","	United States","	Windows","	Windows","	New York, NY","	69.126.229.152","	English","	amplitude-js/4.2.1","	Chrome 88","	Web","	New York","	","	","	","	","	","	"
"	236605664624","	","	Brooklyn","	United States","	Mac","	Mac","	New York, NY","	69.169.1.4","	English","	amplitude-js/4.2.1","	Chrome 87","	Web","	New York","	","	","	","	","	","	"
"	236615048727","	","	Dearborn","	United States","	Windows","	Windows","	Detroit, MI","	75.76.44.5","	English","	amplitude-js/4.2.1","	Chrome 85","	Web","	Michigan","	","	","	","	","	","	"
"	236654044619","	","	Tampa","	United States","	Windows","	Windows","	Tampa-St Petersburg (Sarasota), FL","	47.200.106.156","	English","	amplitude-js/4.2.1","	IE 11","	Web","	Florida","	","	","	","	","	","	"
"	236654055664","	","	","	United States","	Windows","	Windows","	","	54.86.185.203","	English","	amplitude-js/4.2.1","	Chrome 57","	Web","	","	","	","	","	","	","	"
"	236654860164","	","	Los Angeles","	United States","	Windows","	Windows","	Los Angeles, CA","	38.205.0.164","	English","	amplitude-js/4.2.1","	IE 11","	Web","	California","	","	","	","	","	","	"
"	236781828091","	","	Philadelphia","	United States","	Apple iPhone","	Apple iPhone","	Philadelphia, PA","	98.114.249.232","	Chinese","	amplitude-js/4.2.1","	Mobile Safari 14","	Web","	Pennsylvania","	","	","	","	","	","	"
"	236812555546","	","	Fort Lauderdale","	United States","	Windows","	Windows","	Miami-Ft. Lauderdale, FL","	73.125.210.205","	English","	amplitude-js/4.2.1","	Chrome 88","	Web","	Florida","	","	","	","	","	","	"
"	236814269914","	bendillard@yahoo.com","	Whittier","	United States","	Windows","	Windows","	Greenville-Spartanburg, SC","	50.124.154.119","	English","	amplitude-js/4.2.1","	Chrome 88","	Web","	North Carolina","	","	","	","	","	","	"
"	236817057456","	","	New York","	United States","	Mac","	Mac","	New York, NY","	24.103.68.74","	English","	amplitude-js/4.2.1","	Firefox 84","	Web","	New York","	","	","	","	","	","	"
"	236837927970","	","	Port Chester","	United States","	Windows","	Windows","	New York, NY","	72.80.113.26","	English","	amplitude-js/4.2.1","	Chrome 88","	Web","	New York","	","	","	","	","	","	"
"	236843834895","	","	","	United States","	Windows","	Windows","	","	204.155.62.177","	English","	amplitude-js/4.2.1","	IE 11","	Web","	","	","	","	","	","	","	"
"	236846341536","	","	Maplewood","	United States","	Windows","	Windows","	New York, NY","	173.54.218.96","	English","	amplitude-js/4.2.1","	Chrome 88","	Web","	New Jersey","	","	","	","	","	","	"
"	236853178381","	","	Redlands","	United States","	Windows","	Windows","	Los Angeles, CA","	47.149.112.176","	English","	amplitude-js/4.2.1","	Chrome 88","	Web","	California","	","	","	","	","	","	"
"	236864079560","	","	Brooklyn","	United States","	Windows","	Windows","	New York, NY","	100.2.171.6","	English","	amplitude-js/4.2.1","	Chrome 88","	Web","	New York","	","	","	","	","	","	"
"	236870038799","	","	Spring","	United States","	Apple iPhone","	Apple iPhone","	Houston, TX","	73.166.239.9","	English","	amplitude-js/4.2.1","	Mobile Safari 14","	Web","	Texas","	","	","	","	","	","	"
"	236871602934","	rgasco@gafinsurance.com","	Oceanside","	United States","	Windows","	Windows","	New York, NY","	108.14.15.26","	English","	amplitude-js/4.2.1","	Chrome 88","	Web","	New York","	","	","	","	","	","	"
"	236873047754","	","	Spring","	United States","	Apple iPhone","	Apple iPhone","	Houston, TX","	98.194.130.6","	English","	amplitude-js/4.2.1","	Mobile Safari 14","	Web","	Texas","	","	","	","	","	","	"
"	236899659053","	","	The Bronx","	United States","	Apple iPhone","	Apple iPhone","	New York, NY","	172.58.225.159","	English","	amplitude-js/4.2.1","	Mobile Safari 14","	Web","	New York","	","	","	","	","	","	"
"	236909111330","	","	Kissimmee","	United States","	Mac","	Mac","	Orlando-Daytona Beach, FL","	71.47.48.54","	English","	amplitude-js/4.2.1","	Safari 14","	Web","	Florida","	","	","	","	","	","	"
"	236937999841","	","	Meadville","	United States","	Windows","	Windows","	Erie, PA","	75.91.232.107","	English","	amplitude-js/4.2.1","	Chrome 88","	Web","	Pennsylvania","	","	","	","	","	","	"
"	237000278391","	","	Jersey City","	United States","	Mac","	Mac","	New York, NY","	76.117.51.194","	English","	amplitude-js/4.2.1","	Chrome 88","	Web","	New Jersey","	","	","	","	","	","	"
"	237093267797","	","	San Antonio","	United States","	Apple iPhone","	Apple iPhone","	San Antonio, TX","	172.56.14.200","	English","	amplitude-js/4.2.1","	Mobile Safari 14","	Web","	Texas","	","	","	","	","	","	"
"	237115026819","	","	Fair Lawn","	United States","	Windows","	Windows","	New York, NY","	148.76.165.74","	English","	amplitude-js/4.2.1","	IE 11","	Web","	New Jersey","	","	","	","	","	","	"
"	237141452084","	","	The Bronx","	United States","	Android","	Android","	New York, NY","	172.58.231.156","	Chinese","	amplitude-js/4.2.1","	Chrome Mobile 88","	Web","	New York","	","	","	","	","	","	"
"	237157276439","	","	Brooklyn","	United States","	Mac","	Mac","	New York, NY","	69.117.200.250","	English","	amplitude-js/4.2.1","	Chrome 88","	Web","	New York","	","	","	","	","	","	"
"	237161813178","	dmarcengill@allstate.com","	Seneca","	United States","	Windows","	Windows","	Greenville-Spartanburg, SC","	108.227.249.45","	English","	amplitude-js/4.2.1","	Chrome 88","	Web","	South Carolina","	","	","	","	","	","	"
"	237176557933","	","	Fort Worth","	United States","	Apple iPhone","	Apple iPhone","	Dallas-Ft. Worth, TX","	174.197.71.248","	English","	amplitude-js/4.2.1","	Mobile Safari 14","	Web","	Texas","	","	","	","	","	","	"
"	237187849085","	","	Queens","	United States","	Mac","	Mac","	New York, NY","	69.200.230.31","	English","	amplitude-js/4.2.1","	Chrome 88","	Web","	New York","	","	","	","	","	","	"
"	237196012633","	","	Granby","	United States","	Windows","	Windows","	Joplin, MO-Pittsburg, KS","	68.68.175.253","	English","	amplitude-js/4.2.1","	Chrome 88","	Web","	Missouri","	","	","	","	","	","	"
"	237212907960","	","	The Bronx","	United States","	Apple iPhone","	Apple iPhone","	New York, NY","	172.58.227.132","	Spanish","	amplitude-js/4.2.1","	Mobile Safari 14","	Web","	New York","	","	","	","	","	","	"
"	237213210129","	","	League City","	United States","	Windows","	Windows","	Houston, TX","	73.155.238.128","	English","	amplitude-js/4.2.1","	Chrome 88","	Web","	Texas","	","	","	","	","	","	"
"	237229431797","	","	New York","	United States","	Mac","	Mac","	New York, NY","	24.103.68.74","	English","	amplitude-js/4.2.1","	Chrome 88","	Web","	New York","	","	","	","	","	","	"
"	237251032406","	","	Boca Raton","	United States","	Apple iPhone","	Apple iPhone","	West Palm Beach-Ft. Pierce, FL","	107.77.215.84","	English","	amplitude-js/4.2.1","	Mobile Safari 14","	Web","	Florida","	","	","	","	","	","	"
"	237275403892","	","	Malvern","	United States","	Windows","	Windows","	Philadelphia, PA","	72.78.79.49","	English","	amplitude-js/4.2.1","	Chrome 88","	Web","	Pennsylvania","	","	","	","	","	","	"
"	237377150265","	","	New York","	United States","	Mac","	Mac","	New York, NY","	184.152.44.108","	English","	amplitude-js/4.2.1","	Chrome 88","	Web","	New York","	","	","	","	","	","	"
"	237387098869","	","	Winter Haven","	United States","	Windows","	Windows","	Tampa-St Petersburg (Sarasota), FL","	173.169.107.33","	English","	amplitude-js/4.2.1","	Chrome 88","	Web","	Florida","	","	","	","	","	","	"
"	237411920155","	","	New York","	United States","	Mac","	Mac","	New York, NY","	24.103.68.74","	English","	amplitude-js/4.2.1","	Chrome 88","	Web","	New York","	","	","	","	","	","	"
"	237426778517","	","	Valley Stream","	United States","	Mac","	Mac","	New York, NY","	71.183.144.139","	English","	amplitude-js/4.2.1","	Chrome 88","	Web","	New York","	","	","	","	","	","	"
"	237429022564","	","	Lawrence","	United States","	Windows","	Windows","	Philadelphia, PA","	173.61.130.223","	English","	amplitude-js/4.2.1","	Chrome 88","	Web","	New Jersey","	","	","	","	","	","	"
"	237431407630","	","	Stonington","	United States","	Linux","	Linux","	Hartford & New Haven, CT","	76.24.214.87","	English","	amplitude-js/4.2.1","	Chrome 83","	Web","	Connecticut","	","	","	","	","	","	"
"	237466752097","	","	Richmond","	United States","	Windows","	Windows","	Houston, TX","	104.37.131.180","	English","	amplitude-js/4.2.1","	Chrome 88","	Web","	Texas","	","	","	","	","	","	"
"	237470750595","	","	Montclair","	United States","	Apple iPhone","	Apple iPhone","	Los Angeles, CA","	174.243.194.70","	English","	amplitude-js/4.2.1","	Mobile Safari 13","	Web","	California","	","	","	","	","	","	"
"	237475159715","	","	The Bronx","	United States","	Apple iPhone","	Apple iPhone","	New York, NY","	172.58.227.122","	English","	amplitude-js/4.2.1","	Mobile Safari 14","	Web","	New York","	","	","	","	","	","	"
"	237485489480","	","	Sanford","	United States","	Windows","	Windows","	Orlando-Daytona Beach, FL","	72.189.238.124","	English","	amplitude-js/4.2.1","	Chrome 88","	Web","	Florida","	","	","	","	","	","	"
"	237495061383","	","	Queens","	United States","	Windows","	Windows","	New York, NY","	68.129.84.151","	English","	amplitude-js/4.2.1","	Chrome 88","	Web","	New York","	","	","	","	","	","	"
"	237502621638","	","	Clearwater","	United States","	Windows","	Windows","	Tampa-St Petersburg (Sarasota), FL","	24.227.71.74","	English","	amplitude-js/4.2.1","	Chrome 88","	Web","	Florida","	","	","	","	","	","	"
"	237509532408","	","	Smyrna","	United States","	Windows","	Windows","	Atlanta, GA","	47.48.210.114","	English","	amplitude-js/4.2.1","	Chrome 88","	Web","	Georgia","	","	","	","	","	","	"
"	237517975435","	","	San Antonio","	United States","	Windows","	Windows","	San Antonio, TX","	40.94.36.97","	English","	amplitude-js/4.2.1","	Chrome 79","	Web","	Texas","	","	","	","	","	","	"
"	237575051082","	","	Boynton Beach","	United States","	Windows","	Windows","	West Palm Beach-Ft. Pierce, FL","	73.85.245.18","	French","	amplitude-js/4.2.1","	Chrome 88","	Web","	Florida","	","	","	","	","	","	"
"	237582478284","	","	Plainview","	United States","	Windows","	Windows","	New York, NY","	98.116.88.184","	English","	amplitude-js/4.2.1","	Chrome 88","	Web","	New York","	","	","	","	","	","	"
"	237695579156","	","	Cypress","	United States","	Apple iPhone","	Apple iPhone","	Houston, TX","	73.6.200.22","	English","	amplitude-js/4.2.1","	Mobile Safari 14","	Web","	Texas","	","	","	","	","	","	"