Response ID,Name,Email,Score,Comment,Response Timestamp
153386062,James Lee,James_lee@rpsins.com,10,,2020-12-01 19:43:24 -0500
153383348,Vahagn Akopyan,anminsurancelv@gmail.com,10,Easy to use,2020-12-01 19:23:23 -0500
153380702,John Ware,jware@geneseeins.com,10,,2020-12-01 18:58:22 -0500
153379625,Leslie David,ldavid@btisinc.com,10,,2020-12-01 18:47:58 -0500
153372476,Dianne Theriot,dtheriot@paulsagency.com,8,,2020-12-01 17:45:57 -0500
153367070,Emily Rust,emily.rust@helixinsurancegroup.com,10,,2020-12-01 17:00:45 -0500
153360783,Emma Alaia,emma.alaia@nationalinsurancesrv.com,10,,2020-12-01 16:15:06 -0500
153351986,Gelarah Alaimo,galaimo@hpproins.com,10,,2020-12-01 15:16:53 -0500
153345577,Chavy Wachsman,chavyw@pandginsurance.com,10,,2020-12-01 14:39:14 -0500
153332292,Frank Vitale,fvitale99@gmail.com,6,,2020-12-01 13:22:58 -0500
153317567,Lyndsay Colbert,lyndsay@thamesbatre.com,10,,2020-12-01 11:56:17 -0500
153314535,Nisa Rizvi,nisa@creeksiderisk.com,10,,2020-12-01 11:39:14 -0500
153312782,Kirt Hartman,kirt@hmia.com,10,Ease of doing business,2020-12-01 11:28:32 -0500
153311269,Ronnie Levy,ronnie@paramountcoverage.com,10,,2020-12-01 11:19:40 -0500
153310653,Carolina Murgano,carolina@roca-fl.com,10,"I very convenient, easy to bind, and has an excellent customer service.",2020-12-01 11:16:25 -0500
153308754,Esther Geffner,esther@JGAinsureme.com,10,best service,2020-12-01 11:05:28 -0500
153302566,Michael Shaposhnikov,rr@rrinsuranceagency.com,10,,2020-12-01 10:28:39 -0500
153301206,Susan Jackson,susan_jackson@rpsins.com,10,,2020-12-01 10:20:50 -0500
153294481,Denika Spann,dspann@inter-agencyinsurance.com,7,,2020-12-01 09:39:44 -0500
153285968,James Teske,jteske@sweetgrassinsurance.com,9,,2020-12-01 08:38:06 -0500
153240466,Zahid Abbasi,snzinsurance@gmail.com,6,,2020-11-30 22:24:24 -0500
153229320,Raul Gomez,raulgomez2372@gmail.com,0,,2020-11-30 20:25:17 -0500
153208176,David Russel,drussell@attuneinsurance.com,9,,2020-11-30 17:28:20 -0500
153204925,Chance Runk,chance@merchantinsurancesolutions.com,10,,2020-11-30 17:02:35 -0500
153203596,BRETT PORTER,brett@appleinsurance.com,10,,2020-11-30 16:53:00 -0500
153197355,Justus Owens,insurance.midwest@gmail.com,10,,2020-11-30 16:05:20 -0500
153196742,MARIANA ZORRILLA,mariana@garzorinsurance.com,8,,2020-11-30 16:00:54 -0500
153193849,Andrew Wolfe,andrew.wolfe@pacificcrestinsurance.com,10,,2020-11-30 15:40:53 -0500
153192226,Stacey Johnson,stacey@beaconins.biz,10,,2020-11-30 15:29:40 -0500
153191899,Ed Kennedy,evkennedy@kennedylewis.com,10,,2020-11-30 15:27:29 -0500
153190330,Kelli Kammer,kkammer@insuranceagenciesinc.com,10,,2020-11-30 15:16:46 -0500
153185870,Michael Hastava,mhastava@hastava.com,10,,2020-11-30 14:46:25 -0500
153181479,Christopher Jankowski,cjankowski@executiveplannersny.com,10,,2020-11-30 14:16:40 -0500
153175692,Dereck King,dking@jjfl.com,10,"great premiums, great website, nice customer service",2020-11-30 13:40:53 -0500
153174133,Ashley Strouse,astrouse@petersonstrouse.com,9,,2020-11-30 13:31:08 -0500
153161907,Christine Wright,christine@burkhardtinsurance.net,8,,2020-11-30 12:18:52 -0500
153161739,Debbie Arcicola,debbiea@cypressinsurance.com,10,,2020-11-30 12:17:50 -0500
153152911,Jeff Gumaer,jgumaer@allrisks.com,0,not ideal for wholesale brokers,2020-11-30 11:25:22 -0500
153148677,Tessa Daniels,tessa.daniels@fdaservices.com,10,,2020-11-30 11:01:05 -0500
153143974,Bruce Eichacker,bruce@amanas.net,8,,2020-11-30 10:34:36 -0500
153136714,DANNI BASIL,gothamservicesinc@gmail.com,10,,2020-11-30 09:51:15 -0500
153135627,Lacey Greene,lacey@thatsoursig.com,10,,2020-11-30 09:44:13 -0500
153128752,JANUARY MONDAY,january@commercialcoverages.net,10,,2020-11-30 09:00:56 -0500
153118859,BRET PAHWUL,bret@hfpins.com,8,,2020-11-30 07:43:32 -0500
152980540,Mat Letzo,matt.letzo@amwins.com,3,"Underwriting guide is not clear, issues with prior submissions and policies.",2020-11-28 22:45:49 -0500
152827665,Serginio Saintil,serginio@legacyinsurancefs.com,10,,2020-11-27 12:35:08 -0500
152640714,Melisa Nusbaum,melisa@coastgeneralinsurance.com,8,,2020-11-25 19:42:55 -0500
152566336,JASON TRAN,tran.insuranceagent@gmail.com,10,,2020-11-25 10:48:47 -0500
152561564,JOSEPH DOMINGUEZ,joseph@dunhamins.com,8,,2020-11-25 10:25:16 -0500
152559846,Gary Roth,gary@oldefloridainsurance.com,10,,2020-11-25 10:15:31 -0500
152554313,Jeff Tebbe,jefftebbe@ipdadvisors.com,10,,2020-11-25 09:42:11 -0500
152553908,Gary Yager,gyager@affinitymarketingplus.com,10,,2020-11-25 09:38:48 -0500
152466749,JESUS MARTINEZ,praxmar.llc@gmail.com,10,,2020-11-24 16:45:37 -0500
152458995,Christina Hernandez,CHERNANDEZ@iua.bz,10,,2020-11-24 15:43:08 -0500
152448120,Gary Carruthers,gary@marlinagency.com,8,,2020-11-24 14:24:58 -0500
152447738,Peter Beattie,peteb@roamnetins.com,10,,2020-11-24 14:21:55 -0500
152435929,ROBERT RAMOS,RPR230@GMAIL.COM,10,,2020-11-24 13:02:03 -0500
152435882,Cecelia McMahon,cecelia.mcmahon@pfinsurance.com,7,The website is not really that user friendly compaired to other companies website. Live Chat is great.,2020-11-24 13:01:45 -0500
152434757,Michael J. Alvarez,malvarez@inmoregroup.com,10,,2020-11-24 12:53:05 -0500
152425871,John T. Garcia,tom@tomgarciainsurance.com,10,,2020-11-24 11:53:07 -0500
152419170,Rong H Guo,eva.y@wnpgins.com,10,,2020-11-24 11:07:57 -0500
152403270,Andrew Mercer,drew@baileyandking.com,10,"Easy to use, very competitive quotes in a matter of seconds.",2020-11-24 09:22:59 -0500
152397855,Rajendra Singh,rsinsurance63@gmail.com,10,,2020-11-24 08:40:07 -0500
152321287,Pinchos Spitzer,pspitzer@jnrins.com,10,,2020-11-23 16:50:36 -0500
152315340,Lacy Rodgers,Lrodgers@keetchins.com,10,,2020-11-23 16:04:26 -0500
152313254,Sara Coronado,sara@hiains.net,7,,2020-11-23 15:50:05 -0500
152308054,Darlene Lauzurique,darlene@autohomeins.net,10,,2020-11-23 15:17:46 -0500
152298126,Young Song,younginscenter@hotmail.com,10,,2020-11-23 14:14:54 -0500
152287293,Matt Jones,matt@cpigsolutions.com,10,,2020-11-23 13:11:34 -0500
152284027,Krista Leonhardt,ciafs.krista@optimum.net,10,,2020-11-23 12:50:17 -0500
152279454,Mindy Johnson,mjohnson@bigskyuw.com,9,,2020-11-23 12:22:00 -0500
152272463,Mark Hutchings,mark@hutchinsuranceagency.com,9,,2020-11-23 11:42:04 -0500
152265261,Patty Jameson,patty@schneiderinsurance.com,8,"User friendly portal, quick turnaround.
 **except sometimes the portal is glitchy, I think when there is a moratorium in place but even loss payee endorsements don't always go through the first time.",2020-11-23 10:56:24 -0500
151945630,Ana Carmona,carmonaagency@gmail.com,10,,2020-11-20 16:55:50 -0500
151941874,Chris Dritsas,chrisd@apagents.com,10,,2020-11-20 16:11:22 -0500
151940112,Joel Johnson,joel@bbimi.com,10,,2020-11-20 15:51:36 -0500
151938733,Larry Harbin,larry.mfrazer@farmersagency.com,10,Ease of use for rating.,2020-11-20 15:37:35 -0500
151936860,Donna Krieger,donna@insuranceadvisor.com,10,,2020-11-20 15:17:52 -0500
151936189,Ann Harmon,jamieharmon@pittmaninsuranceagency.com,10,,2020-11-20 15:11:25 -0500
151922236,Alan Rogers,arogershli@gmail.com,10,,2020-11-20 13:06:24 -0500
151895895,Trevor Randall,trandall@farmersagent.com,9,,2020-11-20 09:48:57 -0500
151841897,Joseph Van Dyke,joe@mytailoredins.com,8,,2020-11-19 19:52:49 -0500
151825236,Richard Dextraze,infodex@hargray.com,8,,2020-11-19 17:05:42 -0500
151822537,Douglass C. Ware II,dwiajr@gmail.com,10,,2020-11-19 16:41:01 -0500
151816630,Michael Sparber,msparber@riemerinsurance.com,8,,2020-11-19 15:51:06 -0500
151815334,Stephaney Talton,Stephaney@edwardsandsherlock.com,10,,2020-11-19 15:39:55 -0500
151814738,Kristen Cook,kristen.cook@hubinternational.com,10,,2020-11-19 15:35:12 -0500
151814509,Liba Silber,liba@hirschfeldandassociates.com,9,,2020-11-19 15:33:30 -0500
151808718,Kim Austin,kim.austin@jjins.com,8,,2020-11-19 14:52:38 -0500
151808441,Debbie DiDomenico,ddidomenico@heistinsurance.com,10,website and quoting is user friendly,2020-11-19 14:50:42 -0500
151805595,Deborah Kelly Romero,kromero@lemonmohler.com,10,,2020-11-19 14:31:16 -0500
151771327,Tracy Brahm,tracyk@setnorbyer.com,9,,2020-11-19 11:04:41 -0500
151769265,Len Tiernay,Len@vargasagency.com,3,,2020-11-19 10:52:27 -0500
151761804,Kim Scroggins,kscroggins@medjames.com,10,EASY SYSTEM AND GREAT RATES!,2020-11-19 10:11:25 -0500
151673288,Bill Elliott,bill.elliott@getalliance.com,10,,2020-11-18 17:31:04 -0500
151662394,Kayann Deavers,kdeavers@scui.com,8,,2020-11-18 16:09:07 -0500
151656997,Bryan Duran,bduran@eliteriskus.com,10,,2020-11-18 15:32:19 -0500
151648475,Carlos Cantu,ccantu@twfg.com,10,Easy and precise to use.,2020-11-18 14:38:10 -0500
151641850,Leandro Villanueva,leandro.villanueva@hullco.com,10,,2020-11-18 13:54:47 -0500
151641734,Harry Laverde,service@providentiainsurance.com,10,,2020-11-18 13:53:52 -0500
151638526,Chet McAninch,Chet@guardianassurance.com,5,,2020-11-18 13:34:49 -0500
151633618,Maria Salgado,msalgado@scsai.com,0,,2020-11-18 13:05:07 -0500
151628864,GINGER SPENCER,gingerspencer@hamptoninsagency.comcastbiz.net,10,,2020-11-18 12:35:28 -0500
151627638,Clint Orr,clint@iprotectinsurance.com,9,,2020-11-18 12:27:49 -0500
151612490,Allison Sharp,allison@triestagency.com,10,,2020-11-18 10:58:16 -0500
151611164,Peyton Fisher,PFisher@brcins.com,10,,2020-11-18 10:50:00 -0500
151609669,Jessica De Conno,jdeconno@slbig.com,10,,2020-11-18 10:41:41 -0500
151607065,Aaron Mun,himun@iua.bz,10,,2020-11-18 10:26:18 -0500
151600892,George Thimmesch,toby@thimmeschkastner.com,10,,2020-11-18 09:54:24 -0500
151561258,Imran Makani,family1insurance@gmail.com,10,,2020-11-18 01:33:21 -0500
151524962,Rian Kang,rian@rkangcpa.com,9,,2020-11-17 18:43:35 -0500
151514695,Ashley Hinton,ashley@trustaia.com,10,easy to do business with!!!! I hate accord forms,2020-11-17 17:16:37 -0500
151503261,Caple Howden,caple@howdeninsurance.com,10,,2020-11-17 15:50:19 -0500
151498066,Daniel Myers,dan@signatureinsurancevb.com,9,,2020-11-17 15:15:16 -0500
151491840,Skip Pearson,skipdog@sbcglobal.net,9,,2020-11-17 14:34:55 -0500
151489888,Matt Wilson,matt@theinsurancecenter.cc,10,,2020-11-17 14:23:29 -0500
151489006,Kate Lee,kateleeagency@gmail.com,1,,2020-11-17 14:18:45 -0500
151488983,Christy Wise,cwise@rsimga.com,10,,2020-11-17 14:18:34 -0500
151487658,Sean Sullivan,SeanS@oliins.com,10,,2020-11-17 14:10:51 -0500
151471594,Edward J. Connell,ejconnell@comcast.net,8,,2020-11-17 12:34:58 -0500
151467622,Rita Francisco,rita_francisco@rpsins.com,5,,2020-11-17 12:11:13 -0500
151457913,Diana Carlsen,Diana@Bluehillinsurance.com,10,,2020-11-17 11:14:31 -0500
151452749,Rhonda Tarver,rhonda@billmcgehee.com,10,,2020-11-17 10:43:34 -0500
151450501,Jonathan Keeling,jk@ginsbergagency.com,10,,2020-11-17 10:30:41 -0500
151447170,Kelly Hall,kmhinsurancegroup@gmail.com,1,,2020-11-17 10:12:06 -0500
151437746,William Dowd III,wdowd@roemer-ins.com,10,,2020-11-17 09:10:17 -0500
151437457,Michael Mobley,mm@mjins.com,9,Easy to quote,2020-11-17 09:08:27 -0500
151347294,Sergio Rodriguez,sriasergio@gmail.com,10,,2020-11-16 17:27:40 -0500
151346213,Michael Vince,michael@pacins.com,10,Easy to use and good product,2020-11-16 17:19:12 -0500
151343271,Todd Brandon,todd@weinsureok.com,9,,2020-11-16 16:57:31 -0500
151338454,Bert Whisenant,bwhisenant@bwi-ins.com,8,,2020-11-16 16:26:33 -0500
151333995,BEN ZOLOFRA,ben@allprocoverage.com,5,,2020-11-16 15:58:01 -0500
151329946,Joshua Lee,info@jjcagency.com,10,Easty to use,2020-11-16 15:31:54 -0500
151327074,Joey O'Connor,joconnor@oconnoragency.net,10,,2020-11-16 15:12:46 -0500
151309282,Malky Taub,malky@unrm.com,10,,2020-11-16 13:28:29 -0500
151303988,Natalie Garcia,natalie@ellisinsure.com,10,,2020-11-16 12:58:56 -0500
151303353,Brennen Grone,brennen.grone@brightway.com,10,,2020-11-16 12:55:35 -0500
151279926,John Gaudet,jgaudet@clausenagency.com,10,,2020-11-16 10:40:55 -0500
151277565,JOHN BOWMAN,johnbowmaninsurance@frontier.com,10,easy when it fits,2020-11-16 10:26:34 -0500
151080958,Shawn Sell,sell_24@msn.com,10,I like Attune and really want it to be a successful part of my agency.,2020-11-14 17:12:48 -0500
151076957,Ninh Vu,ninh@twfg.com,10,,2020-11-14 16:29:08 -0500
150933136,Nathaniel Jones,njones@straussglobal.com,10,,2020-11-13 13:30:21 -0500
150916609,Garrett Leveridge,garrett.leveridge@gmail.com,10,,2020-11-13 11:42:02 -0500
150914193,Keith Bernard,Keith@Theroundtablefirm.com,3,,2020-11-13 11:26:50 -0500
150904513,Zach Manera,zmanera@slbig.com,10,,2020-11-13 10:27:08 -0500
150820502,Darren Nantz,darren@nantzinsurance.com,10,,2020-11-12 17:49:46 -0500
150809812,Rana Kashat,rkashat@ben-fin.com,10,,2020-11-12 16:26:36 -0500
150803804,Joe Forcina,JOE@FORCINA.COM,10,,2020-11-12 15:43:13 -0500
150803558,Jason Kim,jason@econoagency.com,1,bad service,2020-11-12 15:41:41 -0500
150801549,JOHN KIM,INFO@MYINSMED.COM,10,,2020-11-12 15:27:58 -0500
150800154,Kinara Maxwell,kmaxwell@modicains.com,10,,2020-11-12 15:18:49 -0500
150796859,Gian Boveri,john@avantiassociates.com,10,,2020-11-12 14:55:29 -0500
150784570,George Daison,underwritersins@att.net,10,WEBSITE IS FRIENDLY AND THE BOP POLICIES HAVE A LOT OF COVERAGES,2020-11-12 13:38:01 -0500
150780407,Matt Harnois,matthew_harnois@rpsins.com,6,,2020-11-12 13:12:18 -0500
150770919,Danielle Smoak,dsmoak@cbbins.com,5,,2020-11-12 12:12:03 -0500
150768878,Luis Lopez,luis.lopez@riagency.us,8,,2020-11-12 11:58:50 -0500
150763348,Michelle McNally,Michelle.McNally@hullco.com,8,,2020-11-12 11:22:33 -0500
150761014,Wayne A Vitale,wvitale@vitaleagency.com,10,123,2020-11-12 11:08:21 -0500
150756648,Susan Edenfield,sedenfield@aiasc.com,10,Ease of doing business,2020-11-12 10:41:54 -0500
150754804,Timothy Hershberger,th@mcintoshins.com,10,,2020-11-12 10:30:53 -0500
150753465,Annette Botticello,annetteb@fabricantinsurance.com,9,,2020-11-12 10:26:00 -0500
150738240,Todd Mills,todd@zealco.biz,8,,2020-11-12 08:52:22 -0500
150681921,Wadih Elhajj,wadihelhajj@hotmail.com,10,,2020-11-11 19:54:07 -0500
150672129,Kelly DeFord,kelly@southerninspros.com,10,"Love the ease of the website, just add more products ........ PLEASE",2020-11-11 18:30:17 -0500
150665644,Rustom Deboo,russ@debooins.com,10,,2020-11-11 17:34:11 -0500
150664349,Jeeyoung Park,jypark@solomonus.com,10,quick and simple,2020-11-11 17:22:42 -0500
150657198,Joseph Deutsch,jd@fidellaplus.com,10,,2020-11-11 16:26:16 -0500
150656897,Josephine Randazzo,jrandazzo@rpminsurance.com,10,,2020-11-11 16:24:20 -0500
150636486,Kathleen Bogdan,kathee@secur-all.com,10,,2020-11-11 14:07:38 -0500
150630234,MOLLY FRANKEL,molly@rlherman.com,6,,2020-11-11 13:30:30 -0500
150626073,Justin Fiorentino,justinf@figfl.com,9,Attune is Great... THank you,2020-11-11 13:05:13 -0500
150613292,Nichole Brown,ndbrown@ggiausa.com,10,,2020-11-11 11:49:38 -0500
150608733,Robin Simon,robin.simon@stone-insurance.com,10,,2020-11-11 11:22:13 -0500
150604229,Faigy Schwartz,faigy@igiinsurance.com,5,,2020-11-11 10:57:21 -0500
150596674,Claudia Silveira,rosina@rsinsuranceinc.com,8,jkjj,2020-11-11 10:18:14 -0500
150589601,Ben Kang,benk@casrisk.com,10,,2020-11-11 09:40:34 -0500
150533046,Laura Vazquez,laura@creeksiderisk.com,10,,2020-11-10 21:11:15 -0500
150511743,Mark Broome,BellevueIns@yahoo.com,10,Easy to use and earn rewards just for quoting,2020-11-10 18:07:06 -0500
150499280,Teresa West,teresa.west@hubinternational.com,10,Quick & easy to quote & bind,2020-11-10 16:24:29 -0500
150498057,John Wycoff,insuranceman76002@yahoo.com,10,,2020-11-10 16:15:17 -0500
150489985,Mary Kolenko,mary@interwestunited.com,10,,2020-11-10 15:14:21 -0500
150483269,Stacey A Molpus,smolpus@bordenins.com,10,,2020-11-10 14:29:16 -0500
150482199,Allen Jones,ajones@allenjonesinsurance.com,10,Easy and very competitive rates.,2020-11-10 14:21:11 -0500
150482047,Matthew Plemons,matt@plemonsinc.com,7,,2020-11-10 14:20:07 -0500
150477224,James Gorga,jgorga@scottishamerican.com,5,,2020-11-10 13:49:21 -0500
150463516,Ari Abdi,ari@threebridgesins.com,10,,2020-11-10 12:23:14 -0500
150443921,Rae Klein,Rae@artekinsurance.com,5,,2020-11-10 10:13:46 -0500
150440720,Leticia Frometa,leticia.frometa@acentria.com,10,,2020-11-10 09:53:21 -0500
150436050,Jennifer White,jwhite@mcgowanprograms.com,10,,2020-11-10 09:18:32 -0500
150435534,Jonathon Lee,jonathon.lee@rtspecialty.com,10,,2020-11-10 09:14:33 -0500
150356844,Jenny Chavez,jc@gendusainsurance.com,10,,2020-11-09 17:13:35 -0500
150351673,Fredy Goyeneche,Fgoyeneche@riemerinsurance.com,10,,2020-11-09 16:31:31 -0500
150350151,YISETT VILLANUA,yisettv@hardinginsuranceonline.com,7,,2020-11-09 16:20:06 -0500
150346363,Alondra Rivera,coronaa920@gmail.com,9,,2020-11-09 15:50:27 -0500
150344105,Annette Bulino,abulino@rbryon.com,0,nothing qualifies for workers comp,2020-11-09 15:33:25 -0500
150332716,Kim Harr,kim@harrins.com,10,,2020-11-09 14:13:06 -0500
150324804,John Hines,mike@flbusinsurance.com,10,,2020-11-09 13:21:06 -0500
150320275,Gina Hogan,gina@h2hinsure.com,10,,2020-11-09 12:51:38 -0500
150319066,Joe Perretti,joe.perretti@fdaservices.com,10,,2020-11-09 12:43:41 -0500
150307728,Kristie McCarthy,kristiem@thehamiltongrp.com,10,,2020-11-09 11:33:37 -0500
150306129,Moiz Merchant,moiz@zoominsurance.com,10,,2020-11-09 11:24:21 -0500
150294871,Larry Crum III,larry3@larrycrum.com,5,,2020-11-09 10:16:25 -0500
150293612,Peyton Epps,pepps@kingstreetagency.com,10,,2020-11-09 10:07:54 -0500
150078678,William Palacio,william@skylakeofhollywood.com,10,,2020-11-07 11:27:42 -0500
149998800,Lisa Boudreaux,lisa@qpiins.com,10,,2020-11-06 17:28:42 -0500
149985699,Donte Harris,dharris@jaginsgroup.com,10,,2020-11-06 15:30:04 -0500
149956925,Jeff Bickerstaff,jeff@bickerstaffins.com,10,,2020-11-06 12:14:05 -0500
149948058,Renee Middleton,rmiddleton@scui.com,9,,2020-11-06 11:12:54 -0500
149933843,Megan Ingui,mingui@bgins.com,10,,2020-11-06 09:38:09 -0500
149930648,LaTonya Miller,lmiller@quesurance.com,10,,2020-11-06 09:15:02 -0500
149927014,Susana G Ho,sgeng1206@gmail.com,10,,2020-11-06 08:46:23 -0500
149882445,Vidyadhar Brahmbhatt,homebusinesssale@gmail.com,10,,2020-11-05 21:25:50 -0500
149870948,Ivanoi Soto,ivan@seguros-imperial.com,10,,2020-11-05 19:35:50 -0500
149844783,Kris Barbella,kbarbella@dkkins.com,10,,2020-11-05 16:03:39 -0500
149841003,Joshua Hite,joshua.hite@brightway.com,10,,2020-11-05 15:34:32 -0500
149839236,Elizabeth Johnson,liz@ocalahomeandauto.com,10,,2020-11-05 15:21:52 -0500
149838210,Madison Martinez,madi@skytan.org,10,,2020-11-05 15:14:00 -0500
149830742,Pam Kahl,pamela_kahl@rpsins.com,10,,2020-11-05 14:22:27 -0500
149828451,Laura Taylor,ltaylor@odiorneinsurance.com,10,,2020-11-05 14:07:09 -0500
149819071,Robin Kelly,rkelly@medjames.com,7,User friendly.,2020-11-05 13:07:34 -0500
149815190,Angie Lee,angie@kretschmerinsurance.com,4,,2020-11-05 12:43:19 -0500
149814034,Richard Smoak,richard@smoakinsurance.com,9,,2020-11-05 12:36:03 -0500
149813870,PAWEL BEREZOWSKI,pawel@covgo.com,10,,2020-11-05 12:35:01 -0500
149812526,Denise Lambert,dlambert@slbig.com,10,,2020-11-05 12:26:24 -0500
149789715,Deidre Stevens,deidre.stevens@gia-tx.com,10,"Great rates on classes that fit, and easy process to quote and bind business.",2020-11-05 10:00:56 -0500
149780861,Larry Seal,LSeal@WestFLIns.com,8,,2020-11-05 08:58:22 -0500
149776040,Katey Mishoe,katherine.mishoe@hubinternational.com,10,,2020-11-05 08:18:39 -0500
149774963,Amy Sanchez,amys@rmaggroup.org,9,,2020-11-05 08:08:44 -0500
149709355,Landon Giammalva,landong@roamnetins.com,10,ok,2020-11-04 17:37:20 -0500
149705222,Linda Jamison,Linda@Grodneragency.com,10,,2020-11-04 17:04:34 -0500
149691414,Guillermo Nielsen,blsnielsenbroker@gmail.com,9,"Great quoting system, very easy to use.
 The 9 is because of the no artisan contractor policies which it will be amazing to have in this kind of quoting system.",2020-11-04 15:16:18 -0500
149664097,Max Fain,max@carolinaschoiceinsurance.com,10,"easy to quote and work with
 find the right customer and attune is an excellent fit",2020-11-04 12:22:57 -0500
149661864,Ruben Vick,ruben.vick@onecallinsure.com,8,,2020-11-04 12:09:24 -0500
149660887,David Nguyen,davidnguyen310@gmail.com,10,,2020-11-04 12:03:30 -0500
149660122,Ronald Laster,csrcommercial@combinedmiami.com,10,,2020-11-04 11:58:35 -0500
149653467,Barry Paul Rose,barry@bprins.com,10,,2020-11-04 11:18:05 -0500
149650289,Melonie Scott,melonie@arcwinsurance.com,10,,2020-11-04 10:58:11 -0500
149649584,Caitlyn Courtway,ccourtway@mbsins.com,10,,2020-11-04 10:53:55 -0500
149642932,Laura Seban,LS@4reliant.com,10,Ease of use and instant yes or no!,2020-11-04 10:13:34 -0500
149634524,Esra Karabulut,esra@karabulutins.com,0,,2020-11-04 09:18:03 -0500
149634067,Rebecca Hart,rhart@odiorneinsurance.com,10,,2020-11-04 09:14:49 -0500
149570214,Andrew Stanton,andrew@williamsinsurance.com,10,,2020-11-03 18:46:36 -0500
149557852,Mavy Pena,mpena@avanteinsurance.com,0,,2020-11-03 17:00:40 -0500
149531203,Alan Lee,alee6@farmersagent.com,2,,2020-11-03 13:58:56 -0500
149530341,Jason Tetrault,jtetrault@sihle.com,10,,2020-11-03 13:53:33 -0500
149524068,James Richardson,jrichardson@iulins.com,10,,2020-11-03 13:14:40 -0500
149509183,Janie Collier,collierinsurance@att.net,10,Ease of use,2020-11-03 11:38:35 -0500
149508688,Susan Stover,sstover@twfg.com,9,,2020-11-03 11:35:29 -0500
149505861,David Bartholomew,david@bluehillinsurance.com,10,,2020-11-03 11:18:24 -0500
149498937,Andy Gastley,Andy@agroth.com,10,,2020-11-03 10:35:53 -0500
149495414,Faith Dirk,fdirk@tslins.com,10,,2020-11-03 10:13:58 -0500
149489084,Louis Blangiardo,louis@lgplanninggroup.com,10,,2020-11-03 09:35:07 -0500
149482886,JMason Ray,jmr@rmiagencyllc.com,10,,2020-11-03 08:54:07 -0500
149435582,RICK HERNANDEZ,rick@insurewithfox.com,10,,2020-11-02 21:28:06 -0500
149430463,HILDA UMPIERRE,INSUREME24@GMAIL.COM,10,,2020-11-02 20:35:08 -0500
149429872,Lawrence Lindsey,lesaulindsey@gmail.com,10,,2020-11-02 20:29:52 -0500
149412662,Gabriel Sandoval,gsandoval@aiagency.net,10,,2020-11-02 18:06:10 -0500
149395742,Jacob Grubbs,jgrubbs@jimmurrayinsurance.com,10,,2020-11-02 15:56:03 -0500
149375287,Ian McCormick,imccormick@midman.com,9,,2020-11-02 13:49:55 -0500
149360843,Barbara Nikodym,bnikodym@pkwyins.com,0,website is extremely difficult to navigate!,2020-11-02 12:32:11 -0500
149358586,Brandon Hodges,brandon.hodges@nowellagency.com,8,,2020-11-02 12:20:01 -0500
149350859,KAREN PINES,anita@kpines.us,10,,2020-11-02 11:35:29 -0500
149348109,David Kronstat,kronstatinsurance@gmail.com,9,great produyct good rates great people behind the company,2020-11-02 11:17:21 -0500
149337778,Jason Chang,jchang@newageins.com,8,,2020-11-02 10:09:47 -0500
149272643,Andrew Chong,achong@cornerstonewide.com,10,,2020-11-01 19:43:19 -0500
149040273,Sharif Marzouk,smarzouk@myprotectionagency.com,5,,2020-10-30 17:45:52 -0400
149025808,Chip Cappelmann,chipc@generalcompany.com,10,,2020-10-30 15:44:50 -0400
149008869,Kathia Rodriguez,kathia@londonuw.com,10,,2020-10-30 13:38:51 -0400
148985111,Vincent Elenterio,elenterioagency@optonline.net,10,,2020-10-30 11:09:01 -0400
148972616,Candice Goodwin,candice@allriskinsurancegroup.com,10,Very helpful staff. Anyone I ever talk to is willing to answer all of my questions.,2020-10-30 09:49:21 -0400
148967256,Tyler Easterly,TEasterly@bwcco.com,10,,2020-10-30 09:11:04 -0400
148909727,Brian Samaniego,brian@psainsurance.com,10,,2020-10-29 19:51:22 -0400
148881540,Teresita Revell,aginsurancesolutions@gmail.com,10,,2020-10-29 15:57:47 -0400
148881465,Rich Giordano,rich@quantuminsurancenj.com,10,,2020-10-29 15:57:10 -0400
148877174,Marcus Hanlon,marcus@hanlonagency.com,10,,2020-10-29 15:24:49 -0400
148863187,William Casey,bill@caseyinsurance.net,10,,2020-10-29 13:53:47 -0400
148859551,Diane Tait,diane@aandbinsurance.com,10,,2020-10-29 13:30:46 -0400
148851277,Yenty Follman,yenty@pandginsurance.com,10,,2020-10-29 12:41:09 -0400
148845951,John Cosgrove,jcosgrove@sccoastalinsurance.com,7,,2020-10-29 12:07:51 -0400
148841239,Devon Steiner,devon@insuredbyknight.com,10,,2020-10-29 11:36:29 -0400
148836447,Cindi Wheeler,cwheeler@deschampsgregory.com,10,,2020-10-29 11:06:50 -0400
148835259,Kristen Freda,kfreda@sterlingrisk.com,10,,2020-10-29 11:00:00 -0400
148822650,Johnathan Tate,jtate@alexandergreep.com,10,Amazing,2020-10-29 09:37:57 -0400
148724151,Michelle Perez,mperez@familyschoiceinsurance.com,8,,2020-10-28 15:02:11 -0400
148722149,CHRISTIAN ROMERO,CHRISTIAN@CLINSURANCENC.COM,10,,2020-10-28 14:51:21 -0400
148712503,Zamira E. Arango,lionsinsurance@yahoo.com,10,,2020-10-28 13:53:48 -0400
148698845,Scott Ohmstede,sohmstede@bborlando.com,10,,2020-10-28 12:27:16 -0400
148683355,Finance Admin,susan@beachbenefits.com,7,,2020-10-28 10:51:54 -0400
148681104,Christina Turngren,cturngren@hughcotton.com,8,,2020-10-28 10:37:38 -0400
148675021,Brenda Potter,brenda@a2binsuranceservices.com,10,,2020-10-28 10:03:08 -0400
148632482,JAMES CLARK,jclark5721@att.net,8,,2020-10-27 23:39:39 -0400
148593735,Dan Herbrand,dherbran@tds.net,10,,2020-10-27 17:55:20 -0400
148581958,Martha Martinez,nash@fiagents.com,10,,2020-10-27 16:35:01 -0400
148579758,Daniel Mccommons,danielm@bpinsgroup.com,0,,2020-10-27 16:22:08 -0400
148576065,Mali Appel,mappel@pandginsurance.com,10,,2020-10-27 16:01:43 -0400
148569477,JT Park,jpark@hdinsu.com,10,,2020-10-27 15:21:08 -0400
148554709,Ryan Berry,ryan.berry@networkedins.com,9,,2020-10-27 13:55:17 -0400
148544866,James Gee,jj@akilbride.com,10,,2020-10-27 12:47:55 -0400
148537404,Martha Ruiz,Martha@tsiallc.com,10,,2020-10-27 11:57:25 -0400
148536677,Chuck Clary,chuck@qpiins.com,10,,2020-10-27 11:52:28 -0400
148535256,Elizabeth Boyle,elizabeth@arcwinsurance.com,0,,2020-10-27 11:42:33 -0400
148527948,Mattea Morris,mattea@lpgnj.com,10,,2020-10-27 10:52:49 -0400
148527696,DANIEL WANG,ezcoverages@gmail.com,10,,2020-10-27 10:51:14 -0400
148507092,Cindy Weber,cindyw@americanins.com,8,,2020-10-27 08:10:07 -0400
148443610,Mary Kopydlowski,mary@pigbcs.com,5,"poor UW response to change requests -- service is a chore, while quoting is a breeze.",2020-10-26 17:57:12 -0400
148433038,Raymond Earl Burkett,eburkett@mystrongtower.com,2,Told a policy was acceptable but then cancelled because it wasn't acceptable.,2020-10-26 16:36:48 -0400
148427088,Richie Hardeo,hardeor1@nationwide.com,10,,2020-10-26 15:54:14 -0400
148423630,Aniet Bigorra,aniet.bigorra@estrellainsurance.com,1,,2020-10-26 15:28:56 -0400
148420877,Michael Tonsetic,mike@blanchardinsurance.com,8,,2020-10-26 15:11:03 -0400
148359313,DAVID SCHEPSMAN,david@esbsllc.com,3,,2020-10-26 08:45:09 -0400
148359090,Tonia Miller,tonia@correllhhi.com,7,,2020-10-26 08:43:12 -0400
148086219,Kevin Flowers,kflowers@wadeict.com,10,,2020-10-23 19:18:01 -0400
148083830,Pinkey Hartline,phartline@thehestergroupinc.com,10,Easy binding and quoting!,2020-10-23 18:54:22 -0400
148061519,Adam Block,ablock@dgainc.com,10,,2020-10-23 15:41:49 -0400
148051789,Anna Spanos,anna@kokkorisins.com,10,The website is very user friendly!,2020-10-23 14:30:01 -0400
148038855,Jonathan Handwerger,jonathan@handwergerinsurance.com,9,,2020-10-23 12:58:20 -0400
148035905,Robert Moon,dale@dalemoon.com,10,Easy platform. Good prices,2020-10-23 12:37:11 -0400
148033504,Mavis Feldman,mfeldman@baxter-ins.com,10,"Very good premium, easy quoting!!",2020-10-23 12:19:18 -0400
148029270,Gail Fulmore,gfulmore@thflorida.com,8,,2020-10-23 11:50:15 -0400
148016576,Alex Garzon,garzoninsuranceinc@gmail.com,9,its hard to get thru when you have questions.,2020-10-23 10:25:35 -0400
147972407,Hiu Fung Heather Chan,heather@twinsures.com,10,,2020-10-23 00:00:55 -0400
147908839,Christen Beardall,christenb@powersinsurance.com,10,,2020-10-22 14:35:17 -0400
147906461,Debbie Adametz,dadametz@bbbins.com,10,,2020-10-22 14:20:15 -0400
147899640,Lindsey Mitchell,lmitchell@slbig.com,10,its good,2020-10-22 13:36:39 -0400
147892230,OXFORD INSURANCE,Fastquotega@gmail.com,10,very good and easy,2020-10-22 12:49:31 -0400
147890009,Jeff Kinser,jeff@ciafla.com,10,,2020-10-22 12:35:17 -0400
147883720,Timothy Isaacson,tisaacson@thelangleyagency.com,10,the great people are what make it great!,2020-10-22 11:56:06 -0400
147883574,SONNY BATHIJA,sonny@titaniumrisk.com,6,,2020-10-22 11:55:13 -0400
147807221,Yong Il Cho,pc@londongeneralins.com,10,,2020-10-21 21:07:29 -0400
147791490,Rambha McCanless,rambha@rosenzweiginsurance.com,10,Ease and speed of quoting and premium rates.,2020-10-21 18:40:10 -0400
147779655,Terry Anne Boyer,tboyer@umanoffboyer.com,10,"awesome, system is easy to quote.
 tks",2020-10-21 17:03:48 -0400
147774078,Doug Opielinski,dopielinski@ffinsure.com,8,,2020-10-21 16:19:20 -0400
147756448,David Segui,david@focusinsurancegroup.com,9,"Very easy to use, but tough underwriting guidelines and limited markets available.",2020-10-21 14:23:41 -0400
147746882,Irma Stenson,istenson@oakdalegroup.com,2,Nothing I submit qualifies,2020-10-21 13:28:12 -0400
147741176,Bernard Green,bg@globalgreenhattiesburg.com,10,,2020-10-21 12:55:48 -0400
147739841,Tarik Aytac,taytacins@gmail.com,10,,2020-10-21 12:47:31 -0400
147737619,Myra Parker,myra.parker@rtspecialty.com,9,,2020-10-21 12:33:16 -0400
147733019,Dennis Devivo,dennis@devivoassociates.com,7,I do have more to discuss but I need time to go over website and processing,2020-10-21 12:07:38 -0400
147731909,Derek Williams,dwilliams@southern-insurance.com,10,,2020-10-21 12:01:02 -0400
147727408,Jenifer K. Simmons,jsimmons@mhjinsurance.com,10,,2020-10-21 11:32:53 -0400
147716194,Daniel Fabulic,5@fabulic.com,10,,2020-10-21 10:23:33 -0400
147711176,Donald Kirkendall,insuranceman@kirkendallinsurance.com,10,,2020-10-21 09:54:33 -0400
147706750,Daniel Torres,dtorres@agentsmarkets.com,3,,2020-10-21 09:19:17 -0400
147655064,Brandy Valdez,brandy@fininscom.com,10,,2020-10-20 20:59:50 -0400
147652766,Jorge Benitez,jorge@jbenitezins.com,10,,2020-10-20 20:37:36 -0400
147630973,Ryan DeCuir,ryan@piainsure.com,10,,2020-10-20 17:34:25 -0400
147630625,ANAELY ROBAINA,robaina.insurance@gmail.com,10,,2020-10-20 17:31:19 -0400
147622412,Stephen Hanson,steve@hfgroupllc.com,1,,2020-10-20 16:27:00 -0400
147622178,DAVID RADER,david@bhhinsurance.com,9,,2020-10-20 16:25:15 -0400
147609932,Jimmie McKee,mygforceinsurance@gmail.com,10,,2020-10-20 15:03:50 -0400
147606269,Diane McManus,diane.mcmanus@weinsuregroup.com,10,,2020-10-20 14:44:38 -0400
147600587,Tyler Kim,tylerkim@calkor.com,8,,2020-10-20 14:11:52 -0400
147596453,Michael Lustigman,mendy@mnsinsurance.com,10,,2020-10-20 13:42:42 -0400
147589136,Michael Kontodiakos,Service@mcpinsurance.com,8,,2020-10-20 12:53:52 -0400
147572678,Tracie Normand,tracie@mattinainsurance.com,10,,2020-10-20 11:08:15 -0400
147565195,Danielle Keeley,dkeeley@bingerfinancial.com,10,,2020-10-20 10:20:08 -0400
147558104,Dawn Leavesley,dleavesley@messerfinancial.com,9,Customer service was very responsive. Don't really understand why there is not a need for a signed application though.,2020-10-20 09:33:32 -0400
147484540,SALIKHA BERKOVICH,salikha@abainsuranceagency.net,6,,2020-10-19 18:29:05 -0400
147474695,Rudy Olivares,rolivares@toubininsurance.com,9,,2020-10-19 17:13:20 -0400
147471601,Joe Cannizzo,jcannizzo@arspecialists.com,7,,2020-10-19 16:50:55 -0400
147469632,Jorge Gaibor,jorge@imbcolorado.com,8,,2020-10-19 16:36:28 -0400
147455112,Raquel Ramos,rramos@newageins.com,4,Customer service takes too long to response e-mails.,2020-10-19 15:01:01 -0400
147450806,Megan Kim,megank@bluestoneins.net,9,,2020-10-19 14:36:40 -0400
147442984,Teresa Brandau,teresa@tampabayins.com,9,,2020-10-19 13:51:51 -0400
147434380,CHAVY LIEBERMAN,tovy@rlherman.com,10,,2020-10-19 13:01:45 -0400
147425412,Bertha Campos,berthac@pgiagents.com,3,Commissions are missing & support is hard to get a hold of! They told me commissions were set & they didn't come through!,2020-10-19 12:09:19 -0400
147417511,Anna Heredia,annaheredia@worldins.net,6,,2020-10-19 11:24:53 -0400
147416045,Lucy Mercado,lucy.mercado@acentria.com,10,,2020-10-19 11:16:13 -0400
147413938,Adam Vaughn (AP),avaughn@nfanflorida.com,8,,2020-10-19 11:03:45 -0400
147401136,Matthew DeVivo,matt@devivoassociates.com,10,,2020-10-19 09:45:40 -0400
147392676,Finance Admin,cindy@twinriversinsurance.com,10,,2020-10-19 08:44:32 -0400
147292435,John Vaughn,JohnVaughn@BVWins.com,10,Attune is very helpful. The rating is easy.,2020-10-18 12:15:58 -0400
147207787,Lori Cheek,lorianncheek@gmail.com,10,,2020-10-17 16:21:46 -0400
147194321,Paul Sieranski,eagleagcy@aol.com,3,"Poor quoting platform and no backup. Classification confusion, will not show errors unless you exit quote? I emailed for help on another quote, no response after 5 days, called no promised return call. No other company has these issues, You are losing a LOT of business, good management would fix this, no excuse.",2020-10-17 14:14:39 -0400
147112046,Fernando Rizo,fernie@rizoismyagent.com,10,,2020-10-16 20:15:44 -0400
147096932,HOANG NGUYEN,h.nguyen@360insgroup.com,10,,2020-10-16 17:52:08 -0400
147092630,Adnan Shaukat,adnanas@outlook.com,10,,2020-10-16 17:14:20 -0400
147085194,Damian Carrion,dcarrion@aol.com,8,,2020-10-16 16:12:03 -0400
147084827,Joshua Son,joshua@betterbind.com,3,,2020-10-16 16:08:34 -0400
147079137,George Doumanis,guardiangroup@hotmail.com,3,,2020-10-16 15:23:51 -0400
147068379,Cameron Govreau,cgovreau@siuins.com,10,,2020-10-16 14:06:05 -0400
147059141,Osama Gheith,ocomfortnyc@gmail.com,10,,2020-10-16 12:58:11 -0400
147057317,Ashleigh Dickinson,ashleigh@ison1.com,8,,2020-10-16 12:46:09 -0400
147054029,Joshua Lee,info@jjcagency.com,0,,2020-10-16 12:27:07 -0400
147048098,Aferdita Lekaj,alekaj@keatsagency.com,1,,2020-10-16 11:45:28 -0400
146949777,Trevor Young,trevor@sparklebird.com,10,,2020-10-15 18:07:35 -0400
146945565,Patrick Finch,Pat@FinchandPirkleInsurance.com,1,cant quote medical offices,2020-10-15 17:31:41 -0400
146941194,Fatiana Pastora,fpastora@biaandco.com,10,,2020-10-15 16:57:52 -0400
146940893,Lindsay Wait,lindsay@alliance-ins.com,10,,2020-10-15 16:55:25 -0400
146937732,Andrew Aubery,Aa@primegroupins.com,8,,2020-10-15 16:31:07 -0400
146933781,Dianne Wright,dwright@stielins.com,10,,2020-10-15 16:02:05 -0400
146932191,Corey Seymour,corey@gcuins.com,7,"So far, everything has been positive.",2020-10-15 15:50:00 -0400
146931814,Zack Spaniol,zack@sspncgroup.com,10,,2020-10-15 15:47:29 -0400
146912802,Max Levy,mlinsbkr@gmail.com,10,,2020-10-15 13:44:17 -0400
146906485,Steve Malizia,steve@mvestinsurance.com,10,,2020-10-15 13:03:12 -0400
146900462,Maribel Ayala,mayala@braishfield.com,10,,2020-10-15 12:26:41 -0400
146879398,Kimberly LaFave,klafave@arcxs.com,7,,2020-10-15 10:15:40 -0400
146875276,Robert Shear,Robert@cmhriskpartners.com,9,,2020-10-15 09:49:47 -0400
146874347,Karan H. Park,makethingshappen4u@gmail.com,10,,2020-10-15 09:42:32 -0400
146872349,Michael Cho,michaeltcho@gmail.com,10,,2020-10-15 09:27:00 -0400
146835663,Deitrick Broussard,Deitrick@peoplefirstfamily.com,10,,2020-10-15 00:00:09 -0400
146818470,Grant Tomczak,Grant_Tomczak@rpsins.com,10,,2020-10-14 20:40:35 -0400
146789051,Denise Davis,ddavis@twfg.com,8,Rates are good coverage is good ease of use on the web site sometimes not as easy as other companies.,2020-10-14 16:50:42 -0400
146786590,Alex Braylovskiy,friends.insurance@gmail.com,0,,2020-10-14 16:32:47 -0400
146769405,Mirae Kim,miraekim@iua.bz,7,,2020-10-14 14:47:42 -0400
146768670,Robert M Alessandra,ralessandra@aiagency.net,9,,2020-10-14 14:43:30 -0400
146759467,Jerry Sam,jsam@bsrinsurance.com,10,,2020-10-14 13:49:45 -0400
146759029,Zeldy Sputz,zsputz@skyscraperinsurance.com,10,Great!,2020-10-14 13:47:02 -0400
146756083,Richard Hall,rhall@accbrokers.com,5,,2020-10-14 13:29:15 -0400
146748737,Tina Russell,tina@seibertagency.com,10,,2020-10-14 12:44:31 -0400
146734558,Sarah Jacbson,sarah@ligmn.com,10,,2020-10-14 11:16:11 -0400
146732798,Karin Sprague,karin@kwhiteinsurance.com,10,"I love Attune, system is easy/simple. I do wish their were a few more features available for policy summary and billing that provided additional info. Product is Great along with rates! quick & easy to rate/quote and bind process. The Underwriters/Rep are very quick to respond & always assist me with my questions and request quickly including accurate (always get same answer no matter which person you work with)! I would give Attune a 20! Thank you! Karin Sprague-Kelly White & Associates Insurance, LLC",2020-10-14 11:05:19 -0400
146732584,VIRA ACOSTA,viraacosta@ymail.com,10,,2020-10-14 11:03:55 -0400
146708752,Andrew Clark,aclark@attuneinsurance.com,10,,2020-10-14 08:24:02 -0400
146626362,Cynthia Garrity,cgiardina@financialguide.com,8,,2020-10-13 16:11:44 -0400
146624943,Mohammed Rana,info@smartapple.us,10,game is good,2020-10-13 16:00:37 -0400
146620146,Doug Levi,doug@tampabayinsurance.com,10,great,2020-10-13 15:25:09 -0400
146619886,Gabriela Wenke,Gwenke@efk.com,10,,2020-10-13 15:23:10 -0400
146614158,Susan Shollenberger,sshollenberger@farmersagent.com,7,,2020-10-13 14:43:04 -0400
146612181,Harper kranz,harper@miib.agency,10,,2020-10-13 14:30:49 -0400
146594969,Morgan Moran,morgan@moranfinancialsolutions.com,10,,2020-10-13 12:35:09 -0400
146590962,Jonathan Yanoff,jonathan.yanoff@rushmoreunderwriters.com,10,,2020-10-13 12:08:14 -0400
146589140,Hasan Tharani,hasan@gotooptimum.com,10,"Great system platform, easy to navigate & very user friendly.",2020-10-13 11:56:23 -0400
146588775,Moises Pineda,moises.pineda@estrellainsurance.com,10,,2020-10-13 11:54:00 -0400
146584929,Robert Fede,rsfede@fedeinsurance.com,10,,2020-10-13 11:27:59 -0400
146574384,Matt Jones,matt@cpigsolutions.com,10,very good,2020-10-13 10:21:46 -0400
146570723,YOUNG KANG,young@choiceagencycorp.com,10,,2020-10-13 10:01:41 -0400
146566069,Chantelle Hattaway,chattaway@aiuinc.com,10,,2020-10-13 09:30:04 -0400
146449006,Scott Lyons,scott@billmcgehee.com,10,,2020-10-12 12:51:54 -0400
146439989,Bobbie Creager-Tolon,bcreager@ciafl.net,10,,2020-10-12 11:52:40 -0400
146437036,Tina Marie Ellis,tellis@rampartinsurance.com,10,,2020-10-12 11:34:37 -0400
146432923,Hernan Hernan,grancolombiainsurance@gmail.com,10,great,2020-10-12 11:09:18 -0400
146259604,Frank Munz,fmkunz@gmail.com,9,Could increase the product appetite,2020-10-10 21:54:54 -0400
146173919,Marc Carson,marc.carson@alasure.com,8,,2020-10-10 06:41:22 -0400
146129479,Sandra Tran,SANDRA@BESTPRIORITY.COM,10,,2020-10-09 18:52:17 -0400
146111340,Kavish Sudi,info@sunshine-njinsurance.com,10,,2020-10-09 16:19:53 -0400
146097420,Stormie Speaks,stormie@speaksagency.com,10,,2020-10-09 14:32:05 -0400
146093615,Isaac Wollner,iwollner@ybwbrokerage.com,10,,2020-10-09 14:04:24 -0400
146081483,Jared Capes,jcapes@way2insure.com,10,,2020-10-09 12:39:27 -0400
146080012,Joseph M Jaros,jarosins@gmail.com,0,This is very hard to navigate!,2020-10-09 12:29:49 -0400
146078247,Jason Humphries,jhumphries@scfsolutions.org,10,,2020-10-09 12:17:47 -0400
146055977,Patricia Potts,arkinsuranceinc@att.net,5,,2020-10-09 09:46:47 -0400
146041747,Diane Lippincott,dianel@bgains.com,10,Ease of quoting. Once quoted there are no surprises. Customer service is easy to reach.,2020-10-09 07:22:17 -0400
145979592,Stacie Stollery,stacie.stollery@bosworth-associates.com,8,,2020-10-08 17:20:10 -0400
145975706,Kaci Vandergeest,kaci.vandergeest@rtspecialty.com,10,,2020-10-08 16:48:18 -0400
145975504,Amy Vasquez,amy@hmia.com,9,,2020-10-08 16:46:56 -0400
145975134,Jason Bernstein,jay@mrrates.com,8,,2020-10-08 16:43:55 -0400
145971367,Shoaib Sultan,transworld15@hotmail.com,7,"Portal needs an update, there is always some issues.",2020-10-08 16:15:35 -0400
145970207,Rian Kang,rian@rkangcpa.com,8,,2020-10-08 16:06:03 -0400
145969172,Austin Shackelford,austin@flatlandsjessup.com,10,,2020-10-08 15:58:17 -0400
145963999,J Klein,jklein@jklein.biz,10,,2020-10-08 15:17:37 -0400
145956599,Jessica Johnston,jjohnston@btisinc.com,5,service after the policy is bound is extremely slow,2020-10-08 14:23:50 -0400
145947391,Marie Castellano,mcastellano@jwedens.com,10,,2020-10-08 13:21:06 -0400
145942791,Sweta Murarka,sweta@aisusainc.com,10,Excellent,2020-10-08 12:51:09 -0400
145910997,Stephen Cranford,asuassure@gmail.com,10,Ease of use. Contacted to see if I had used the proper class code for the business. Very timely response and assistance.,2020-10-08 09:30:57 -0400
145904693,Zach Anderson,zanderson@burns-wilcox.com,4,,2020-10-08 08:44:14 -0400
145828363,Keo Khounlo,kkhounlo@cravenswarren.com,10,GREAT,2020-10-07 17:01:01 -0400
145828078,Nathan Jo,nathan@calkor.com,10,,2020-10-07 16:58:29 -0400
145827574,Sang K Kim,sang@aclins.com,10,,2020-10-07 16:54:42 -0400
145825901,Shelina Hawkins-Sajwani,shelina@hawk-ins.com,10,I love how user friendly the interface is!,2020-10-07 16:42:56 -0400
145822641,Isahi Pena,penaisahi17@gmail.com,10,,2020-10-07 16:19:45 -0400
145820601,Moon Kim,ezerinsolution@gmail.com,8,,2020-10-07 16:05:35 -0400
145779211,Eric Botello,eric@centurioninsgroup.com,10,,2020-10-07 11:50:16 -0400
145770957,Robert S. Danischewski,rdanischewski@rpminsurance.com,7,,2020-10-07 11:00:09 -0400
145766904,Joel Blitzer,jblitzer@brookswaterburn.com,5,,2020-10-07 10:37:17 -0400
145762227,Nataliya La Rosa,pcinsurance@premierpls.com,10,,2020-10-07 10:11:37 -0400
145673410,Rickey Vallin,rickey@psainsurance.com,10,,2020-10-06 17:19:41 -0400
145657585,Gary Yager,gyager@affinitymarketingplus.com,10,,2020-10-06 15:17:48 -0400
145652161,Ilana Kessler,ikessler@simonagencyny.com,10,,2020-10-06 14:41:07 -0400
145649265,Adriana Zamora,az.insuranceagent4@gmail.com,10,everything is great and self explanatory,2020-10-06 14:21:39 -0400
145643870,Lori Augustyniak,lori@horizonins.net,4,,2020-10-06 13:46:06 -0400
145641684,Tannia Villarreal,tanniareyes09@gmail.com,10,,2020-10-06 13:32:55 -0400
145622800,Saad Waqas,saad@defyinsurance.com,10,,2020-10-06 11:37:17 -0400
145621665,Melissa Brophy,melissa.brophy@jjins.com,7,,2020-10-06 11:31:15 -0400
145604782,Debbie Patterson,debbie@ellardinsurance.com,8,easy quoting,2020-10-06 09:53:58 -0400
145536895,JP Lawrence,jp@jplinsurance.com,10,,2020-10-05 19:51:18 -0400
145523214,Davon Guerrier,davon.guerrier@quantumassurance.com,10,,2020-10-05 17:54:00 -0400
145514244,Lauren Smith,lauren@pyrongroup.com,10,very easy and competitive pricing,2020-10-05 16:41:50 -0400
145509257,Michael Reyes,mreyes@fibinsurance.com,10,,2020-10-05 16:06:33 -0400
145504242,CHARLES OSBURN,charles@theosburngroup.net,6,I had my first claim and it went horribly.,2020-10-05 15:32:28 -0400
145490875,Martin Burlingame,martin@cig-llc.biz,10,,2020-10-05 14:05:59 -0400
145489703,Darling Ribalta,ribaltainsagency@gmail.com,8,,2020-10-05 13:58:02 -0400
145483191,Sheryl Grubbs,sheryl@wannamakeragency.com,10,easy to navigate website generate quote and proposal,2020-10-05 13:16:50 -0400
145479842,Allen Jones,ajones@allenjonesinsurance.com,10,,2020-10-05 12:57:09 -0400
145466014,Stephanie Basile,sbasile@easternunderwriting.com,10,,2020-10-05 11:28:36 -0400
145456984,Jane Han,jhan@newageins.com,10,,2020-10-05 10:29:38 -0400
145445725,Deborah Wagener,deb@pinsiaa.com,7,cause you gave me the survey question before I finished the quote,2020-10-05 09:17:49 -0400
145137191,Janet Anderson,jsa@collectiveunderwriters.com,10,Easy to navigate.,2020-10-02 16:11:26 -0400
145128259,MNarc Berg,mberg@pinkhamagency.com,10,,2020-10-02 15:02:59 -0400
145123316,Keith Williams,keith@kdwilliams.com,10,,2020-10-02 14:21:22 -0400
145102341,Dusty Kilgore,dusty@southerninspros.com,8,,2020-10-02 12:02:04 -0400
145101428,Jim Gibson,jim@mckinneyandco.com,10,,2020-10-02 11:54:52 -0400
145099348,Stacey Fish,staceyf@pclagencyinc.com,5,,2020-10-02 11:40:39 -0400
145097387,James Richardson,jrichardson@iulins.com,10,,2020-10-02 11:28:06 -0400
145027019,Billy Dorsey,bdorsey@shoreline-ins.com,10,Love the process. This is how,2020-10-01 21:09:53 -0400
145018841,Mike Kahen,gis@gisinsure.com,10,GREAT ON LINE ACCESS AND CONVINIENCE FOR RATING,2020-10-01 19:42:01 -0400
145015679,Lien Nguyen,info@lnagencytx.com,10,,2020-10-01 19:10:41 -0400
145014837,Blake Souders,blake@soudersgroup.com,9,Ease of use,2020-10-01 19:02:31 -0400
145001547,Daniel Feigenbaum,danielf@mibrk.com,10,,2020-10-01 17:05:55 -0400
145001516,Aimee Myers,aimee@psainsurance.com,10,,2020-10-01 17:05:40 -0400
144996333,Husam Mohammed,lou@insurancemedics.com,10,,2020-10-01 16:25:37 -0400
144993168,Lalaine Latimer,llatimer@quoteplusinsure.com,5,,2020-10-01 16:03:13 -0400
144988230,Yury Serna,yury.csins@gmail.com,8,,2020-10-01 15:31:48 -0400
144986105,Dirk Fulton,dfulton@fultonis.com,8,,2020-10-01 15:18:51 -0400
144984927,Shawn Carroll,shawn@gcuins.com,10,,2020-10-01 15:11:29 -0400
144974549,David Sanford,david@sanfordinsurance.agency,7,,2020-10-01 14:10:45 -0400
144973297,Jonathan Steward,jonsteward@osins.com,10,,2020-10-01 14:04:10 -0400
144949410,Tyler Scherffius,tyler@dcimountain.com,10,,2020-10-01 11:48:54 -0400
144916786,Angie Hickman,ahickman@aiasc.com,10,,2020-10-01 08:26:04 -0400
144859498,Michael Morris,morris.insur@yahoo.com,10,,2020-09-30 19:55:53 -0400
144844258,Vanessa Hankins,vhankins@allstate.com,5,,2020-09-30 17:50:13 -0400
144840071,Steve Chiericozzi,steve@fifamily.com,9,,2020-09-30 17:15:29 -0400
144834283,Yossi Kleinberegr,yossef@kbinsure.com,10,,2020-09-30 16:32:06 -0400
144821424,Jordon Pierce,jpierce@eddysindependentgroup.com,10,,2020-09-30 15:05:57 -0400
144818363,Brian Kownacky,brian@ahginsurance.com,10,,2020-09-30 14:46:34 -0400
144814661,Cathy Conrad,cathy@schwinginsurance.com,10,,2020-09-30 14:23:10 -0400
144806960,VERONICA SANCHEZ,vsanchez@veronicainsurance.com,10,EXCELLENT,2020-09-30 13:37:01 -0400
144797284,Vitaly Rivkin,vitaly@erpsgroup.com,10,,2020-09-30 12:38:44 -0400
144795655,Fermin Chavez,fortalezainsurance@gmail.com,10,ALL QUOTE IS MADE SO FAST,2020-09-30 12:29:57 -0400
144794911,IRIS M ['PEREZ'],iyolimar@aol.com,7,,2020-09-30 12:25:43 -0400
144788736,Ida Hipkins,IDA@HIPKINS.COM,10,,2020-09-30 11:49:31 -0400
144780572,Tristan Smyth,tristan@wilgusassociates.com,10,its very nice,2020-09-30 11:03:27 -0400
144769945,Madhavan Chakravarthi,madhavan@insuranceisland.com,10,,2020-09-30 10:05:56 -0400
144767504,Debbie Brown,debbie@hutchinsure.net,10,Easy to quote and bind great response time from online chat,2020-09-30 09:50:42 -0400
144717493,Viet Nguyen,vnlonestar@hotmail.com,6,,2020-09-29 23:17:56 -0400
144673114,Fred Chang,PFGIG@outlook.com,6,,2020-09-29 17:15:36 -0400
144661450,David Noma,David@NOMAinsurance.Agency,9,,2020-09-29 16:02:43 -0400
144622065,Krysti Farrell,commercial@aiinsure.com,10,,2020-09-29 12:30:13 -0400
144620969,Paul Hogue,paul@askhometown.com,7,,2020-09-29 12:24:44 -0400
144620594,Allison Sharp,allison@triestagency.com,10,,2020-09-29 12:22:58 -0400
144599698,Diane Silva,dsilva@nycbusinessgroup.com,9,"I chose a 9 rating because Attune is just about perfect to deal with -  I just wish that Attune opened their markets a little more to new ventures - also, I wish that Attune allowed businesses with a maximum of a 30 day lapse because sometimes mistakes happen in billing and a company that might have never experienced any lapse of insurance finds themselves without coverage due to a billing error -",2020-09-29 10:47:41 -0400
144585029,David Hernandez,David@Morrowinsurance.net,9,Everything has been superb so far.,2020-09-29 09:47:31 -0400
144561913,Hector Melendez,hmelendez@wwfi.com,6,The back door underwriting has left some of my clients very upset with me.,2020-09-29 07:53:04 -0400
144471761,Denny Wu,denny.wu@wuadvisors.com,10,,2020-09-28 21:41:11 -0400
144450060,Scott M Peterson,peterson.insurance@yahoo.com,0,DONT WRITE IT,2020-09-28 19:16:47 -0400
144443989,David Scott,dscott@executiveins.net,9,,2020-09-28 18:37:30 -0400
144434640,Arlene Hong,Ahong@twfg.com,10,,2020-09-28 17:39:41 -0400
144412942,Richard Sweat,rsweat@sjig.com,10,,2020-09-28 15:42:38 -0400
144406966,Hotel Team,Hotelteam@murray.agency,9,,2020-09-28 15:14:32 -0400
144402615,Jennifer Villarino,jennifervr@rmaggroup.org,9,,2020-09-28 14:52:34 -0400
144398083,Meagan Miller,Meagan.miller@rtspecialty.com,10,,2020-09-28 14:31:07 -0400
144366725,Megan Ingui,mingui@bgins.com,8,I wish it was easier to speak with a real person with a name,2020-09-28 12:00:33 -0400
144363316,Crystal Harned,charned@southernqualityins.com,7,,2020-09-28 11:40:27 -0400
144354679,Belina Iammartino,biammartino@davidjlouie.com,10,The best,2020-09-28 10:50:39 -0400
144345737,Kelly Dee,kelly.dee@fdaservices.com,9,,2020-09-28 09:57:24 -0400
144332353,John Schiemer,jschiemer@scui.com,4,,2020-09-28 08:21:53 -0400
144132277,Faye Chen,fayechen@dp-formosa.com,10,,2020-09-26 13:44:39 -0400
144033400,Barry Robinson,barry@jetinsuranceagency.com,10,Great,2020-09-25 17:16:13 -0400
144027220,Jaime Bavier,jaime.bavier@brightway.com,10,,2020-09-25 16:28:58 -0400
144019523,Fred Burress,fred@aegisifs.com,10,Great system,2020-09-25 15:29:33 -0400
144013877,Brent Carpenter,brent@saiains.com,10,,2020-09-25 14:49:28 -0400
143985712,P. Reily Murphy,rmurphy@ici-al.com,10,,2020-09-25 11:35:10 -0400
143979837,Sue Knight,s.knight@pacificcrestinsurance.com,8,,2020-09-25 10:56:15 -0400
143978027,Laura Allred,lallred@chadwickinsurance.com,9,If you need to make a change it can be difficult,2020-09-25 10:44:43 -0400
143879063,Stan Dziga,debstandziga@yahoo.com,0,sdfsadfsaeasdsad,2020-09-24 17:28:48 -0400
143866890,Lissette Collazo,lcollazo@gendelman.com,5,,2020-09-24 15:57:50 -0400
143862358,Robert Leary,rleary@citybytheseainsurance.com,8,Great Tech and easy quotes,2020-09-24 15:26:31 -0400
143848624,Rick Mege,rick@remcoagency.com,10,,2020-09-24 13:56:14 -0400
143845393,Brian Ford,bford@insuranceresourcesllc.com,8,,2020-09-24 13:34:29 -0400
143834645,Ryan Brewart,ryan@homewellins.com,10,excellent.,2020-09-24 12:24:47 -0400
143830554,Yenty Follman,yenty@pandginsurance.com,10,,2020-09-24 11:58:40 -0400
143810322,Ryan Wileman,r.wileman@pacificcrestinsurance.com,10,,2020-09-24 09:47:25 -0400
143806796,Christine Snow,christinesnow@allstate.com,10,,2020-09-24 09:20:27 -0400
143746241,Tiffany Monserrate,tmonserrate@kbmco.com,10,,2020-09-23 19:59:14 -0400
143721216,Barbie Jones,barbie@hutchinsure.net,10,,2020-09-23 16:52:23 -0400
143712826,Alvaro Arbelaez,INFO@ARBELAEZINSURANCE.COM,2,,2020-09-23 15:53:43 -0400
143708926,Mohammed Farooq,farooq@globalunderwriters.net,10,,2020-09-23 15:27:41 -0400
143708285,Peter Heath,pheath@seemanholtzpc.com,10,,2020-09-23 15:23:31 -0400
143708179,maurice ciola,maurice.ciola@weinsuregroup.com,10,,2020-09-23 15:22:52 -0400
143707541,Alex Mayers,a.mayers@pacificcrestinsurance.com,9,,2020-09-23 15:18:54 -0400
143706581,Amanda Roach,ARoach@bordenins.com,1,The site is not user friendly.,2020-09-23 15:12:37 -0400
143701937,Elizabeth McKee,emckee@stielinsurance.com,10,,2020-09-23 14:43:10 -0400
143698615,Diane Tait,diane@aandbinsurance.com,10,Ease of use,2020-09-23 14:23:35 -0400
143695824,Colleen Burke,colburke@hotmail.com,10,,2020-09-23 14:06:32 -0400
143693280,Hill Robinson,robinsoninsagency@yahoo.com,10,,2020-09-23 13:51:14 -0400
143688358,Khristi Sanders,khristi_s@yahoo.com,10,Attune is so easy to quote.,2020-09-23 13:20:23 -0400
143674753,Jason Bartow,jason@bartowinsurance.com,8,,2020-09-23 11:55:31 -0400
143652146,Jimmy Mccormick,themccormickagency@gmail.com,1,,2020-09-23 09:32:24 -0400
143649595,Lucy Kirby,lucy@thamesbatre.com,10,,2020-09-23 09:13:19 -0400
143649570,Melissa Gallway,melissa@excellencefirstins.com,10,Love the easy quoting.,2020-09-23 09:13:08 -0400
143589678,David Kay,davidkay@iicsa.com,10,,2020-09-22 19:59:35 -0400
143582512,Jonathan Mott,jon@capitaldfc.com,9,,2020-09-22 18:55:11 -0400
143561989,Jennifer Kreatsoulas,jen@csaninsurance.com,10,ease of use,2020-09-22 16:18:49 -0400
143553046,Michael Cuevas,michael@cpigsolutions.com,9,,2020-09-22 15:18:09 -0400
143546723,Gigi Chan,gigi.chan@tgpcagency.com,8,,2020-09-22 14:35:42 -0400
143538770,Corey Young,icyinc72@gmail.com,7,,2020-09-22 13:46:40 -0400
143537947,Paula Ross,paula.ross@rtspecialty.com,7,not perfect but better than average,2020-09-22 13:42:33 -0400
143536225,Melissa Manus,melissa@insoffice.com,10,,2020-09-22 13:35:30 -0400
143526526,Kim Fishberg,kfishberg@sihle.com,10,,2020-09-22 12:36:53 -0400
143512863,Finance Admin,statements@networkedins.com,1,,2020-09-22 11:08:57 -0400
143511805,Jacqueline Fuchs,jfuchs@jimcor.com,10,,2020-09-22 11:02:20 -0400
143506812,Lester Mcneal,lester@qpiins.com,10,,2020-09-22 10:27:37 -0400
143502508,Clayton Shumaker,clayton@thecoleorganization.com,10,,2020-09-22 10:00:29 -0400
143502287,Amy Dorgan,dorgan.amy16@gmail.com,10,,2020-09-22 09:58:52 -0400
143495841,Jason Kim,jason@econoagency.com,1,,2020-09-22 09:08:31 -0400
143495341,Robert Fava,robert@favafinancial.com,8,,2020-09-22 09:04:24 -0400
143482747,Charlotte Becker,charlotte@beckerinsurance.org,8,,2020-09-22 06:56:51 -0400
143425309,Karin Humphrey,karin@whitcoinsurance.com,1,,2020-09-21 18:29:47 -0400
143418681,Tracy Underwood,thomt32@nationwide.com,8,,2020-09-21 17:38:05 -0400
143418637,Rose E Ovalle,rovalle@hopeins.us,7,easy to rate.,2020-09-21 17:37:36 -0400
143396679,Karyl Averill,karyl@jsquareinsurance.com,10,"Incentive is everything, instant appetite acceptance/rejection is awesome too. I don't like wasting my time. Although having a bigger appetite would be great and as i understand it, will get bigger with time. ::crossing fingers::",2020-09-21 15:04:48 -0400
143391007,Christopher Hardwick,chardwick@herbiewiles.com,5,,2020-09-21 14:31:13 -0400
143390111,Anthony Carracino,anthony@harbor.ai,10,,2020-09-21 14:25:49 -0400
143364557,Eliset Almanzar,ealmanzar@alphadrct.com,7,,2020-09-21 11:51:34 -0400
143237576,Elizabeth Gonzalez,aadarel.insuranceagency@gmail.com,10,,2020-09-20 12:32:43 -0400
143040834,Roger Hayek,rhayek@hayekinsurance.com,10,The quoting tool is amazing. Downloading the policy and making a payment right when you bind is miraculous! Service is great!,2020-09-18 18:20:12 -0400
143020094,Paul T. McDonald,paul@logicinsurance.com,9,,2020-09-18 15:28:42 -0400
143018784,Lindsay Clary,lindsay@qpiins.com,8,,2020-09-18 15:19:16 -0400
143018520,Raymond Walters,broker@ajohnsonins.com,10,Very useable quote platform and simple to use,2020-09-18 15:17:25 -0400
143013923,Chad Eskanazy,Ceskanazy@morstan.com,8,,2020-09-18 14:44:43 -0400
143009947,Fred Milbert,fred@casrisk.com,10,,2020-09-18 14:19:45 -0400
142988992,Patricia Duque,supervisor@expressinsurancellc.com,10,excellent service,2020-09-18 11:57:38 -0400
142972111,Laura Lee Bickford,lauralee@citrusintegrity.com,9,,2020-09-18 10:05:15 -0400
142877319,James Jones,caseyj@bcgjinsurance.com,10,,2020-09-17 16:33:40 -0400
142864340,Leah Weichbrod,lweichbrod@reichmanins.com,10,,2020-09-17 14:58:56 -0400
142864068,Sally DeRouen-Ramirez,uw@101insurancegroup.com,0,Can not write anything with this carrier,2020-09-17 14:56:53 -0400
142851777,Yidel Graus,yidel@yandginsurance.com,10,,2020-09-17 13:25:33 -0400
142844731,Jake Karstens,jake@karstensfinancial.com,8,,2020-09-17 12:37:31 -0400
142840285,Jay Markas,jay@insurenow247.com,4,I have given feedback to uw rep about BOP output and quoting some months ago. and FL rates are high.,2020-09-17 12:07:36 -0400
142824367,Dominick Romani,d13romans@aol.com,8,,2020-09-17 10:20:28 -0400
142820110,Deborah Howard,ipi18@yahoo.com,10,,2020-09-17 09:53:43 -0400
142818935,Carol Palmer,CPALMER@CHADWICKINSURANCE.COM,10,,2020-09-17 09:45:34 -0400
142764530,Imran Bhimani,imran@inshoragroup.com,10,,2020-09-16 21:28:07 -0400
142757756,Matthew Smith,matt@legacyinsurance.org,8,,2020-09-16 20:29:08 -0400
142730064,Jill Adams,jillradams@comcast.net,10,Easy to use,2020-09-16 16:44:33 -0400
142726737,MaryAnn Reilly,mreilly@rmsinsurance.us,10,,2020-09-16 16:21:19 -0400
142717527,Kristi Dean,kdean@bdi-insurance.com,10,,2020-09-16 15:19:13 -0400
142714296,John Backer,john@gbifl.com,7,,2020-09-16 14:56:33 -0400
142710807,Grant A. Jacobson,g_jacobson@frhodesco.com,10,,2020-09-16 14:33:45 -0400
142684279,Jorge Medrano,jmedrano@bigoakins.com,9,,2020-09-16 11:45:15 -0400
142671596,Eli Spitz,elis@gnpbrokerage.com,3,,2020-09-16 10:24:58 -0400
142661927,Jason Norman,jasonnorman@norman-spencer.com,8,,2020-09-16 09:22:51 -0400
142652130,Nick Napoleon,nnapoleon@ghgins.com,10,Easy to use for a basic & quick quote. Not many options available to tailor coverage. Being new to this product it is hard to know what coverage is included or could be added.,2020-09-16 07:58:08 -0400
142564850,Travis Woodard,integrityinsurancellc@outlook.com,10,,2020-09-15 18:43:12 -0400
142544342,Laura Talley,laura@easleyins.com,5,,2020-09-15 16:02:58 -0400
142504402,Veronica Treadwell,veronicat@borgborg.com,8,,2020-09-15 13:24:32 -0400
142488871,D. Wayne Mathews,waynem1936@windstream.net,10,,2020-09-15 12:15:19 -0400
142474240,Arezoo Zarghouni,info@unitedinsuranceagencytx.com,10,,2020-09-15 11:21:38 -0400
142465328,Brian Bergman,bbergman@meyersonroth.com,10,,2020-09-15 10:49:01 -0400
142335389,Don Dietrich,don.dietrich@cellbrokerage.com,6,,2020-09-14 19:15:31 -0400
142330462,Jessica Lahti,jessica@thamesbatre.com,10,Ease of online quoting,2020-09-14 19:00:00 -0400
142302755,Marat Kogan,mkogan@ffbinsurance.com,10,,2020-09-14 17:02:27 -0400
142285103,Kamal Nijhawan,Kam@amquestinsurance.com,10,,2020-09-14 15:06:50 -0400
142274501,Jerrie Vibbert,jerrie@mooreandassoc.net,10,,2020-09-14 14:02:22 -0400
142271833,Melissa McFarlane,mmcfarlane@brcins.com,8,,2020-09-14 13:45:58 -0400
142249262,Brian Eidelbus,brian_eidelbus@rpsins.com,4,,2020-09-14 11:17:18 -0400
142242530,Phat Truong,Johnny@OrchidAG.com,10,,2020-09-14 10:33:00 -0400
142236548,James Chin,jerseyshoreinsurance@gmail.com,10,Awesome company easy to use system. Great experience so far!,2020-09-14 09:54:21 -0400
142116071,Marcus Owens,allpro2@yahoo.com,10,,2020-09-13 09:45:37 -0400
141933487,Keith Meredith,keith@flinsagency.com,10,,2020-09-11 16:43:35 -0400
141920502,Joseph P Beck,joe@woodinsure.com,10,ease of doing business,2020-09-11 15:05:27 -0400
141917967,Joanita Wamala,jpwamala@yahoo.com,10,,2020-09-11 14:46:19 -0400
141907360,Ronnie at Greenwood,ronnie@greenwoodinsurance.net,10,,2020-09-11 13:32:16 -0400
141902746,Joel Goldman,jgold@ffbinsurance.com,10,,2020-09-11 12:59:14 -0400
141898167,Alyssa De Larosa,a.delarosa@pacificcrestinsurance.com,10,very quick and good service. I love that attune is so helpful via chat.,2020-09-11 12:26:37 -0400
141897790,Gary Cranford,g_cranford@yahoo.com,10,website is simple customer service is quick and helpful!!,2020-09-11 12:23:52 -0400
141897710,Kris Lacer,kris@spearsig.com,10,,2020-09-11 12:23:18 -0400
141889527,Eli Curt Fuld,Eli@hifiassociates.com,10,,2020-09-11 11:26:05 -0400
141872062,Regina Alvarez,regina.alvarez@ioausa.com,10,The quoting process is extremely user friendly.,2020-09-11 09:24:30 -0400
141867390,Kandy Pinkstaff,kandyp@maxib.com,5,,2020-09-11 08:45:40 -0400
141863405,Erik Loesch,eloesch@atlanticshield.com,8,,2020-09-11 08:07:44 -0400
141862986,Katie Nehls,knehls@mjkelly.com,10,,2020-09-11 08:03:42 -0400
141857584,Tyrone Shelton,tyrone.shelton@greatflorida.com,7,You dont write commercial with mixed residential and I have alot of those cases,2020-09-11 06:55:21 -0400
141796553,Bradley Flowers,bradley@saralandinsurance.com,9,,2020-09-10 17:38:49 -0400
141782492,Nora Saunders,nora@saunderstaylor.com,10,,2020-09-10 15:49:46 -0400
141781659,Karla Guerra,karlag@clementsins.com,10,,2020-09-10 15:43:40 -0400
141769283,Shari McNeely,smcneely@jwedens.com,10,,2020-09-10 14:20:38 -0400
141768210,Debbie Harlow,debbie@piainsure.com,9,,2020-09-10 14:13:06 -0400
141767202,Paula Rogers,paula@larrycrum.com,10,,2020-09-10 14:06:16 -0400
141764742,Fabiola San Miguel,fsanmiguel@jaginsgroup.com,10,,2020-09-10 13:49:48 -0400
141733648,Jennifer Roman,jennifer_roman@ajg.com,10,,2020-09-10 10:17:13 -0400
141727532,Andy Packard,andy.packard@amwins.com,1,,2020-09-10 09:31:12 -0400
141725708,Celeste Primo,calbert@epinsurance.com,10,,2020-09-10 09:16:20 -0400
141721957,Kaci Tucker,ktucker@hughcotton.com,10,,2020-09-10 08:42:48 -0400
141720969,Phil Cooper,pcooper@braishfield.com,8,,2020-09-10 08:32:30 -0400
141697977,Jess Holzinger,jholzinger@xsbrokers.com,7,,2020-09-10 01:50:10 -0400
141681353,Julio Trujillo,julio@mibrk.com,10,,2020-09-09 21:45:35 -0400
141657013,Joe Solis,joe@luxorinsurance.com,10,Great job. Keep it up.,2020-09-09 18:07:13 -0400
141649433,VICTOR BERMUDEZ,BERMUDEZAGENCY@GMAIL.COM,10,,2020-09-09 17:06:40 -0400
141647648,Melissa at Greenwood,melissa@greenwoodinsurance.net,5,,2020-09-09 16:53:49 -0400
141640341,William Kim,wkim@hopeagency.biz,10,,2020-09-09 15:58:33 -0400
141634301,Haley Keith,hkeith@btisinc.com,10,,2020-09-09 15:16:43 -0400
141633615,Brian Shore,brian@shoreinsurance.com,10,,2020-09-09 15:12:03 -0400
141631490,Kristie Baeumert,kristie@hillcountryins.net,10,,2020-09-09 14:57:32 -0400
141630311,Christian Garner,CHRISTIAN@THECOVENANTINS.COM,10,Very Quick And easy!,2020-09-09 14:49:38 -0400
141629901,Pam Hotaling,pam.hotaling@jjins.com,10,,2020-09-09 14:47:03 -0400
141628686,Renee Smajek,renees@harborins.net,10,,2020-09-09 14:39:04 -0400
141627556,Donna Krieger,donna@insuranceadvisor.com,9,"The platform is awesome, with real time quotes!",2020-09-09 14:31:54 -0400
141624025,Paul Dalpe,pauldalpe@earthlink.net,10,,2020-09-09 14:09:08 -0400
141612618,Danny Tran,danny.tran@twfg.com,5,,2020-09-09 12:55:43 -0400
141608095,Jay Kibbe,jay.kibbe@verifyins.net,7,Good website but would like a few more class codes,2020-09-09 12:27:52 -0400
141606023,Miriam Lichtenstein,miriaml@gnpbrokerage.com,10,I love attune,2020-09-09 12:14:51 -0400
141605675,Marie Sullivan,msullivan@ameliainsurance.com,10,,2020-09-09 12:12:26 -0400
141601174,Maria Fisk,maria@iic.cc,10,,2020-09-09 11:41:09 -0400
141591328,Jennifer Peeples,jen@peeplesins.com,10,Attune's online quoting system is the easiest out there. Quick response and great rates!,2020-09-09 10:34:52 -0400
141521077,Landen Goodnight,lgoodnight@orrandassociates.com,1,,2020-09-08 19:49:11 -0400
141507194,Marina Bishay,mbishay@btisinc.com,10,THANK YOU FOR ALL YOU GUYS DO FOR US,2020-09-08 17:42:10 -0400
141506363,Peter J. Kim,PETER@LONDONGENERALINS.COM,10,,2020-09-08 17:35:14 -0400
141485979,Jose Hernandez,jose@joseinsurance.com,7,,2020-09-08 15:00:37 -0400
141482681,Brittan Culclasure,brittan@midgettinsurance.com,10,,2020-09-08 14:38:29 -0400
141480884,Ernesto Barros Barros,ernesto@suprainsurance.net,8,,2020-09-08 14:25:53 -0400
141480445,Ryne McClaren,RMCCLAREN@BTISINC.COM,7,,2020-09-08 14:22:35 -0400
141475941,Ingrid Eide,ieide@keatsagency.com,10,,2020-09-08 13:51:46 -0400
141469660,Leslie David,ldavid@btisinc.com,8,The product is good but the service tends to be slow,2020-09-08 13:09:01 -0400
141468900,Andrew Quach,andrew.quach@networkedins.com,10,,2020-09-08 13:03:48 -0400
141464827,Tommy Pameticky,tommy@tntinsurancegroupllc.com,9,,2020-09-08 12:37:26 -0400
141462553,Bernadette Trinidad,btrinidad@alianzainsuranceagency.com,9,,2020-09-08 12:22:07 -0400
141462468,Al Shank,ashank@alshank.com,8,,2020-09-08 12:21:28 -0400
141458349,Raymond Earl Burkett,eburkett@mystrongtower.com,10,,2020-09-08 11:54:51 -0400
141457853,Alex Martinez,globalgreenagent@gmail.com,10,,2020-09-08 11:51:28 -0400
141444461,Wesley King,wes.king@weinsuregroup.com,10,,2020-09-08 10:21:24 -0400
141438900,Michael Lustigman,mendy@mnsinsurance.com,10,,2020-09-08 09:47:09 -0400
141436501,Robert Clark,robert@avaloninsurance.us,10,,2020-09-08 09:29:14 -0400
141319434,Shakeel Ahmad,info@sgfinancialinc.com,6,,2020-09-07 11:18:47 -0400
141158722,JESSICA WALSTROM,jwalstrom@btisinc.com,10,This system is so easy to quote in.,2020-09-05 22:42:46 -0400
141106511,MARICELA MOJARRO,Maricela@placasinsurance.com,10,,2020-09-05 12:49:13 -0400
141024755,Nevaeh Ortiz,nevaeh@thesigco.com,10,awesome,2020-09-04 18:20:29 -0400
141022533,Joseph Van Dyke,joe@mytailoredins.com,9,,2020-09-04 18:00:55 -0400
141003551,Carlos Segredo,carlos@andysassurance.com,10,,2020-09-04 15:23:48 -0400
141002094,Richard Badoux,richard@gwgeneral.com,10,,2020-09-04 15:13:22 -0400
141001821,Harlan Lane,harlan.lane@bxsi.com,10,,2020-09-04 15:11:19 -0400
140988471,Tracy Goodwin,tgoodwin@turn2us.com,10,,2020-09-04 13:49:06 -0400
140983659,Moiz Merchant,moiz@zoominsurance.com,10,,2020-09-04 13:11:29 -0400
140977905,DAVID RADER,david@bhhinsurance.com,9,,2020-09-04 12:28:46 -0400
140964015,Jay Oh,joh@wooreeinsurance.com,10,,2020-09-04 10:45:40 -0400
140958755,David Wilbur,david@insurpro.com,9,,2020-09-04 10:11:25 -0400
140903290,John Tripp Wagner,tripp@jupteqins.com,9,,2020-09-03 21:08:50 -0400
140876803,Jason Davis,jason@seascapeins.com,10,,2020-09-03 17:12:29 -0400
140868189,David Beck,davidabeckllc@gmail.com,10,,2020-09-03 16:04:40 -0400
140866600,Karen Renfro,krenfro@traversins.com,10,,2020-09-03 15:53:13 -0400
140866569,Shlomo Sheynblum,shlomo@mweissins.com,5,,2020-09-03 15:52:57 -0400
140864702,Cerissa McCarthy,cerissah@bcgjinsurance.com,10,,2020-09-03 15:39:12 -0400
140860718,Heather Gaines,hgaines@lyonfrycadden.com,10,,2020-09-03 15:10:29 -0400
140859807,Carol Hall,cwhall@iicsa.com,10,,2020-09-03 15:04:14 -0400
140859659,Darren Nantz,darren@nantzinsurance.com,10,Quoting Site is very easy to use and the pricing seems very competative.,2020-09-03 15:03:25 -0400
140852036,Sean Gilroy,sgilroy@jlnygroup.com,9,,2020-09-03 14:10:28 -0400
140843309,Vincent Do,services4insurances@gmail.com,10,,2020-09-03 13:11:58 -0400
140836929,Maegan Loggins,mmaritt@insuranceaai.com,10,,2020-09-03 12:26:48 -0400
140835860,Kattie Troxler,ktroxler@rivins.com,9,,2020-09-03 12:19:36 -0400
140831740,Asad Abbasi,asad@abbasigroup.com,7,,2020-09-03 11:51:33 -0400
140824667,Sheva Bridges,sheva@slingluffunited.com,10,,2020-09-03 11:05:23 -0400
140820572,Martin Burlingame,martin@cig-llc.biz,9,,2020-09-03 10:36:36 -0400
140815013,Eric Gilbert,Eric@AlphaRiskManagement.net,8,,2020-09-03 09:59:20 -0400
140808400,Ebone Joiner,ejoiner@btisinc.com,5,,2020-09-03 09:07:21 -0400
140803837,David Turrentine,david@turrentineinsuranceagency.com,10,,2020-09-03 08:29:28 -0400
140799026,Radford Huynh,radfordhuynh@msn.com,6,,2020-09-03 07:43:41 -0400
140782705,Katie Sanford,katie.sanford@rtspecialty.com,6,,2020-09-03 02:57:26 -0400
140773506,Liz Henderson,liz.henderson@rtspecialty.com,8,"Being a wholesaler, preference would be for distribution to be strictly through wholesalers, not retail direct access",2020-09-03 00:00:55 -0400
140769726,Damaris Alvarez,damaris@bbdins.com,8,,2020-09-02 23:10:32 -0400
140728651,Dianne Theriot,dtheriot@paulsagency.com,8,,2020-09-02 17:12:48 -0400
140728253,Prab Randhawa,prab@myprisminsurance.com,10,,2020-09-02 17:10:05 -0400
140727183,Paul Burkholder,pauliii@burkholderins.com,10,,2020-09-02 17:02:23 -0400
140727011,Claudia Darden,cdarden@tslins.com,10,,2020-09-02 17:00:45 -0400
140724588,Frantz Jean-Baptiste,frantz.jeanbaptiste@weinsuregroup.com,10,,2020-09-02 16:43:29 -0400
140722532,Eloy Garza,aismcallen1@gmail.com,7,,2020-09-02 16:29:01 -0400
140722421,Stephanie Dexter,stephanie.dexter@bxsi.com,10,very easy to deal with your company,2020-09-02 16:28:22 -0400
140720705,Vivian Bechor,vivian@idealcoverages.com,10,,2020-09-02 16:16:10 -0400
140718131,Chance Kornegay,chance.kornegay@gmail.com,9,,2020-09-02 15:58:31 -0400
140713698,Jacklyn Pleitez,jpleitez@ici.insurance,10,,2020-09-02 15:29:33 -0400
140713459,Suri Schiff,suri@pandginsurance.com,10,,2020-09-02 15:27:47 -0400
140707930,Helen Graham,sandhills_2000@yahoo.com,10,Because the quoting was not complicated.,2020-09-02 14:51:26 -0400
140705850,Kahlil Turner,kturner@scui.com,8,,2020-09-02 14:38:05 -0400
140696028,Iva Capers-Simpson,iva.capers@jjins.com,7,,2020-09-02 13:38:17 -0400
140645541,Phillip Lemoine,cowboy3638888@gmail.com,9,,2020-09-02 07:55:14 -0400
140593224,Ana Vaquis,anavaquis@apinsuranceservices.net,10,,2020-09-01 20:23:54 -0400
140557935,Wayne Archer,yrcriz@rondonbrokerage.com,8,,2020-09-01 16:09:19 -0400
140551916,Daniel Feigenbaum,danielf@mibrk.com,7,,2020-09-01 15:30:52 -0400
140551496,Monica Hilton,mhilton@odiorneinsurance.com,10,,2020-09-01 15:27:42 -0400
140549023,Inger Murphy,imurphy@jwedens.com,9,,2020-09-01 15:09:01 -0400
140513945,Ginger Trevino,g.trevino@pacificcrestinsurance.com,10,,2020-09-01 11:11:13 -0400
140511953,Matthew Cochrane-Logan,mcl@crescentagency.com,9,,2020-09-01 10:56:57 -0400
140509052,Lori Hampton,lori@sapeloins.com,10,,2020-09-01 10:36:22 -0400
140505952,Bruchie Weiss,bw@sibins.com,10,,2020-09-01 10:13:42 -0400
140440670,Crystal Oliver-Hines,crystal@marvelagents.com,10,,2020-08-31 21:27:13 -0400
140423655,AYESHA SALMAN,info@ayeshasagency.com,8,,2020-08-31 18:31:31 -0400
140407559,Mat Trawick,Mat@trawickinsurance.com,10,,2020-08-31 16:25:12 -0400
140406583,Cynthia Garrity,cgiardina@financialguide.com,10,Easy to use,2020-08-31 16:18:07 -0400
140399684,Kenneth Anthony,ken@kanthonyinsurance.com,5,,2020-08-31 15:30:08 -0400
140394601,Denise Brunet,dbrunet@morstan.com,10,,2020-08-31 14:56:09 -0400
140392951,John Vaughn,JohnVaughn@BVWins.com,10,,2020-08-31 14:44:59 -0400
140390625,Tracy Mau,tracy.mau@strovis.com,10,,2020-08-31 14:29:57 -0400
140388619,Emily Rust,emily.rust@helixinsurancegroup.com,10,.,2020-08-31 14:16:16 -0400
140368908,Gabriela Wenke,Gwenke@efk.com,10,,2020-08-31 12:07:20 -0400
140360028,Ari Abdi,ari@threebridgesins.com,10,,2020-08-31 11:10:59 -0400
140355613,Kent Moody,Kent.Moody@NationalInsuranceSrv.com,10,,2020-08-31 10:42:27 -0400
140334074,Jose Perez,jperez@siuins.com,9,,2020-08-31 08:01:05 -0400
140178429,Shelina Hawkins-Sajwani,shelina@hawk-ins.com,10,I love using Attune!,2020-08-29 19:56:05 -0400
140014615,KK Yeung,kkyeung@lavoins.com,10,Motivating and achievable.,2020-08-28 13:03:33 -0400
139994553,Patricia Amerson,pamerson@riemerinsurance.com,10,,2020-08-28 10:34:35 -0400
139994526,Faiga R Lovi,frlovi@reichmanins.com,10,,2020-08-28 10:34:21 -0400
139928901,Mark Paradiso,mark@markparadiso.com,10,Would be nice to get rewarded while trying to sell your products.,2020-08-27 20:17:45 -0400
139907766,Kathry Zeanah,kathyz@kzib.com,10,,2020-08-27 17:25:33 -0400
139891990,Cameron Govreau,cgovreau@siuins.com,10,,2020-08-27 15:26:55 -0400
139889177,Danish Parbtani,Danish@WiseGuardInsurance.com,10,,2020-08-27 15:06:41 -0400
139884759,Bobbie Jo Elkins,bobbie.elkins@hullco.com,0,,2020-08-27 14:35:59 -0400
139881362,Eric Shick,shicky68@hotmail.com,10,,2020-08-27 14:13:04 -0400
139843333,Ana Olivera-Carvalho,ana@davies-assoc.com,10,GREAT,2020-08-27 09:49:16 -0400
139762271,Jordan Wilson,jordan@faithinsure.com,10,,2020-08-26 17:35:44 -0400
139756582,Alaa Abuisneineh,info@insuredasap.com,10,,2020-08-26 16:50:49 -0400
139742294,Janna Trapp,jtrapp@insure-us.org,10,,2020-08-26 15:01:36 -0400
139734534,Daniel Myers,dan@signatureinsurancevb.com,10,Very easy to use and like the reward options.,2020-08-26 14:04:45 -0400
139726892,Siulun Alex Sze,asze@centurymax.com,10,,2020-08-26 13:12:35 -0400
139720209,James Frommert,james@srisk.com,10,,2020-08-26 12:24:34 -0400
139708805,JANUARY MONDAY,january@commercialcoverages.net,10,,2020-08-26 11:06:36 -0400
139655078,J Stern,jstern@sternagencyinc.com,5,,2020-08-26 00:00:19 -0400
139650250,Rong H Guo,eva.y@wnpgins.com,10,,2020-08-25 22:58:26 -0400
139624600,Tawfiq Hassan,tom@texasgiantinsurance.com,10,,2020-08-25 18:54:00 -0400
139617345,Vince Demshar,vincent.demshar@rtspecialty.com,8,,2020-08-25 17:49:16 -0400
139609037,William Collins,wcollins@rvuins.com,10,,2020-08-25 16:36:57 -0400
139608415,Eli at Sky Brokerage,Eli@sky-coverage.com,6,,2020-08-25 16:31:39 -0400
139605423,Karan H. Park,makethingshappen4u@gmail.com,10,,2020-08-25 16:07:59 -0400
139599865,Michael Dugan,mdugan@primegroupins.com,10,,2020-08-25 15:22:58 -0400
139591606,Stephanie Larreinaga,stephaniel@mofoscho.com,10,,2020-08-25 14:22:16 -0400
139587338,EVELYN IM,eim@ckinsgroup.com,10,,2020-08-25 13:53:08 -0400
139575438,Emma Alaia,emma.alaia@nationalinsurancesrv.com,10,,2020-08-25 12:32:07 -0400
139570116,Celia Rocker,crocker@thflorida.com,8,,2020-08-25 11:54:55 -0400
139552021,Jeannette Hutchison,jeannetteh8474@gmail.com,8,,2020-08-25 09:44:27 -0400
139546439,Austin Shackelford,austin@flatlandsjessup.com,10,,2020-08-25 08:57:51 -0400